<?xml version="1.0" encoding="UTF-8" standalone="no"?>
<!-- Created with Inkscape (http://www.inkscape.org/) -->

<svg
   xmlns:dc="http://purl.org/dc/elements/1.1/"
   xmlns:cc="http://creativecommons.org/ns#"
   xmlns:rdf="http://www.w3.org/1999/02/22-rdf-syntax-ns#"
   xmlns:svg="http://www.w3.org/2000/svg"
   xmlns="http://www.w3.org/2000/svg"
   xmlns:xlink="http://www.w3.org/1999/xlink"
   xmlns:sodipodi="http://sodipodi.sourceforge.net/DTD/sodipodi-0.dtd"
   xmlns:inkscape="http://www.inkscape.org/namespaces/inkscape"
   width="153.58051mm"
   height="49.856136mm"
   viewBox="0 0 544.1829 176.6556"
   id="svg2"
   version="1.1"
   inkscape:version="0.92.3 (2405546, 2018-03-11)"
   sodipodi:docname="bd-appli-proc-stockee.svg">
  <defs
     id="defs4">
    <marker
       inkscape:stockid="Arrow2Lend"
       orient="auto"
       refY="0"
       refX="0"
       id="marker5108"
       style="overflow:visible"
       inkscape:isstock="true">
      <path
         id="path5110"
         style="fill:#000000;fill-opacity:1;fill-rule:evenodd;stroke:#000000;stroke-width:0.625;stroke-linejoin:round;stroke-opacity:1"
         d="M 8.7185878,4.0337352 -2.2072895,0.01601326 8.7185884,-4.0017078 c -1.7454984,2.3720609 -1.7354408,5.6174519 -6e-7,8.035443 z"
         transform="matrix(-1.1,0,0,-1.1,-1.1,0)"
         inkscape:connector-curvature="0" />
    </marker>
    <marker
       inkscape:stockid="Arrow2Lend"
       orient="auto"
       refY="0"
       refX="0"
       id="Arrow2Lend"
       style="overflow:visible"
       inkscape:isstock="true">
      <path
         id="path4853"
         style="fill:#000000;fill-opacity:1;fill-rule:evenodd;stroke:#000000;stroke-width:0.625;stroke-linejoin:round;stroke-opacity:1"
         d="M 8.7185878,4.0337352 -2.2072895,0.01601326 8.7185884,-4.0017078 c -1.7454984,2.3720609 -1.7354408,5.6174519 -6e-7,8.035443 z"
         transform="matrix(-1.1,0,0,-1.1,-1.1,0)"
         inkscape:connector-curvature="0" />
    </marker>
    <radialGradient
       r="147.14"
       cy="602.71997"
       cx="328.57001"
       gradientTransform="matrix(2.7784719,0,0,0.49193412,-3558.439,1590.0956)"
       gradientUnits="userSpaceOnUse"
       id="radialGradient5558"
       xlink:href="#radialGradient3693"
       inkscape:collect="always" />
    <radialGradient
       id="radialGradient3693"
       gradientUnits="userSpaceOnUse"
       cy="602.71997"
       cx="328.57001"
       gradientTransform="matrix(1,0,0,0.17718,0,495.93)"
       r="147.14"
       inkscape:collect="always">
      <stop
         id="stop12830"
         style="stop-color:rgb(72, 72, 73)"
         offset="0" />
      <stop
         id="stop12862"
         style="stop-color:rgb(67, 67, 68)"
         offset="0" />
      <stop
         id="stop12832"
         style="stop-color:rgb(143, 143, 144);stop-opacity:0"
         offset="1" />
    </radialGradient>
    <radialGradient
       r="147.14"
       cy="602.71997"
       cx="328.57001"
       gradientTransform="matrix(2.7784719,0,0,0.49193412,-3344.4808,1617.8494)"
       gradientUnits="userSpaceOnUse"
       id="radialGradient5558-3"
       xlink:href="#radialGradient3693-6"
       inkscape:collect="always" />
    <radialGradient
       id="radialGradient3693-6"
       gradientUnits="userSpaceOnUse"
       cy="602.71997"
       cx="328.57001"
       gradientTransform="matrix(1,0,0,0.17718,0,495.93)"
       r="147.14"
       inkscape:collect="always">
      <stop
         id="stop12830-7"
         style="stop-color:rgb(72, 72, 73)"
         offset="0" />
      <stop
         id="stop12862-5"
         style="stop-color:rgb(67, 67, 68)"
         offset="0" />
      <stop
         id="stop12832-3"
         style="stop-color:rgb(143, 143, 144);stop-opacity:0"
         offset="1" />
    </radialGradient>
    <radialGradient
       r="147.14"
       cy="602.71997"
       cx="328.57001"
       gradientTransform="matrix(2.7784719,0,0,0.49193412,-3519.8711,1669.9003)"
       gradientUnits="userSpaceOnUse"
       id="radialGradient5558-9"
       xlink:href="#radialGradient3693-2"
       inkscape:collect="always" />
    <radialGradient
       id="radialGradient3693-2"
       gradientUnits="userSpaceOnUse"
       cy="602.71997"
       cx="328.57001"
       gradientTransform="matrix(1,0,0,0.17718,0,495.93)"
       r="147.14"
       inkscape:collect="always">
      <stop
         id="stop12830-0"
         style="stop-color:rgb(72, 72, 73)"
         offset="0" />
      <stop
         id="stop12862-2"
         style="stop-color:rgb(67, 67, 68)"
         offset="0" />
      <stop
         id="stop12832-37"
         style="stop-color:rgb(143, 143, 144);stop-opacity:0"
         offset="1" />
    </radialGradient>
    <linearGradient
       id="8">
      <stop
         stop-color="#888"
         id="f" />
      <stop
         stop-color="#323232"
         id="g"
         offset="1" />
    </linearGradient>
    <linearGradient
       id="9">
      <stop
         stop-color="#b3925d"
         id="h" />
      <stop
         stop-color="#5d4014"
         id="i"
         offset="1" />
    </linearGradient>
    <linearGradient
       id="A">
      <stop
         stop-color="#fff"
         id="j" />
      <stop
         stop-opacity="0"
         stop-color="#fff"
         offset="1"
         id="k" />
    </linearGradient>
    <linearGradient
       id="B">
      <stop
         id="l" />
      <stop
         stop-opacity="0"
         offset="1"
         id="m" />
    </linearGradient>
    <linearGradient
       id="C">
      <stop
         stop-color="#fadabb"
         id="n" />
      <stop
         stop-color="#e5ab72"
         offset="1"
         id="o" />
    </linearGradient>
    <linearGradient
       id="D">
      <stop
         stop-color="#75511a"
         id="p" />
      <stop
         stop-color="#5d4014"
         offset="1"
         id="q" />
    </linearGradient>
    <linearGradient
       id="E">
      <stop
         stop-color="#ffdfbf"
         id="r" />
      <stop
         stop-color="#ffbf80"
         offset="1"
         id="s" />
    </linearGradient>
    <linearGradient
       id="F">
      <stop
         stop-color="#555"
         id="t" />
      <stop
         stop-color="#323232"
         offset="1"
         id="u" />
    </linearGradient>
    <filter
       id="G"
       height="2.2490001"
       width="1.084"
       y="-0.62400001"
       x="-0.041999999"
       style="color-interpolation-filters:sRGB">
      <feGaussianBlur
         stdDeviation="2.35772"
         id="v" />
    </filter>
    <radialGradient
       gradientTransform="matrix(1.568895,0,0,0.10631136,699.54035,457.41533)"
       gradientUnits="userSpaceOnUse"
       xlink:href="#B"
       id="H"
       r="67.550003"
       cy="123.47"
       cx="67.550003" />
    <radialGradient
       gradientTransform="matrix(0.976266,0,0,0.3449619,-3.7879993,47.329754)"
       gradientUnits="userSpaceOnUse"
       xlink:href="#F"
       id="I"
       r="53.470001"
       cy="73.480003"
       cx="-150.21001" />
    <linearGradient
       gradientUnits="userSpaceOnUse"
       xlink:href="#A"
       id="J"
       y2="71.360001"
       x2="0"
       y1="58.509998" />
    <radialGradient
       gradientTransform="matrix(0.7106547,-0.7931363,0.6515295,0.5837345,-89.147801,-140.18956)"
       gradientUnits="userSpaceOnUse"
       xlink:href="#C"
       id="K"
       r="15.01"
       cy="96.419998"
       cx="-202.11" />
    <radialGradient
       gradientTransform="matrix(0.9762659,0,0,1.2035801,-3.7880098,-12.311177)"
       gradientUnits="userSpaceOnUse"
       xlink:href="#E"
       id="L"
       r="25"
       cy="24.370001"
       cx="-166.92999" />
    <radialGradient
       gradientTransform="matrix(0.9957564,0,0,0.6692533,-1.241811,1.0115844)"
       gradientUnits="userSpaceOnUse"
       xlink:href="#D"
       id="M"
       r="26.613001"
       cy="-1.671"
       cx="-165.45" />
    <linearGradient
       gradientUnits="userSpaceOnUse"
       xlink:href="#A"
       id="N"
       y2="3.1589999"
       x2="0"
       y1="-16.423" />
    <radialGradient
       gradientTransform="matrix(2.8666039,-0.696391,0.450993,1.8564548,-142.05942,17.195472)"
       gradientUnits="userSpaceOnUse"
       xlink:href="#Y"
       id="O"
       r="40.938"
       cy="27.990999"
       cx="66.470001" />
    <linearGradient
       id="P">
      <stop
         stop-color="#eee"
         id="w" />
      <stop
         stop-opacity="0"
         stop-color="#eee"
         offset="1"
         id="x" />
    </linearGradient>
    <radialGradient
       gradientTransform="matrix(1.5330966,-3.1358239e-8,2.404893e-8,1.1240308,-33.828167,2.9909361)"
       gradientUnits="userSpaceOnUse"
       xlink:href="#P"
       id="Q"
       r="55.27"
       cy="-15.174"
       cx="64.699997" />
    <radialGradient
       gradientTransform="matrix(-1.000243,0.9858658,-1.0002429,-0.9858657,136.67077,-51.812516)"
       gradientUnits="userSpaceOnUse"
       xlink:href="#X"
       id="R"
       r="58.695999"
       cy="4.9000001"
       cx="66.400002" />
    <radialGradient
       gradientTransform="matrix(-1.404511,1.1888571,-1,-1.1813958,199.73811,11.750541)"
       gradientUnits="userSpaceOnUse"
       xlink:href="#W"
       id="S"
       r="15.03"
       cy="51.389999"
       cx="60.049999" />
    <radialGradient
       gradientTransform="matrix(-1,0.9856262,-0.9999999,-0.9856264,147.08467,-25.868967)"
       gradientUnits="userSpaceOnUse"
       xlink:href="#V"
       id="T"
       r="56.734001"
       cy="23.325001"
       cx="58.400002" />
    <radialGradient
       gradientTransform="matrix(1,0,0,0.08641975,0,107.20963)"
       gradientUnits="userSpaceOnUse"
       xlink:href="#B"
       id="U"
       r="53.91"
       cy="117.35"
       cx="63.894001" />
    <linearGradient
       id="V">
      <stop
         stop-color="#cc0700"
         id="y" />
      <stop
         stop-color="#af0600"
         offset="1"
         id="z" />
    </linearGradient>
    <linearGradient
       id="W">
      <stop
         stop-color="#eee"
         id="10" />
      <stop
         stop-color="#dcdcdc"
         offset="1"
         id="11" />
    </linearGradient>
    <linearGradient
       id="X">
      <stop
         stop-color="#4f4f4f"
         id="12" />
      <stop
         stop-color="#393939"
         offset="1"
         id="13" />
    </linearGradient>
    <linearGradient
       id="Y">
      <stop
         stop-color="#fd0"
         id="14" />
      <stop
         stop-color="#f3c300"
         offset="1"
         id="15" />
    </linearGradient>
    <linearGradient
       gradientTransform="matrix(1.7889874,0,0,1.8073584,1193.6019,269.94499)"
       y2="3.1589999"
       x2="0"
       y1="-16.423"
       gradientUnits="userSpaceOnUse"
       id="Z"
       xlink:href="#A" />
    <radialGradient
       r="25"
       cy="24.370001"
       cx="-166.92999"
       gradientTransform="matrix(1.7465275,0,0,2.1753005,1186.8252,247.69428)"
       gradientUnits="userSpaceOnUse"
       id="a"
       xlink:href="#E" />
    <radialGradient
       r="15.01"
       cy="96.419998"
       cx="-202.11"
       gradientTransform="matrix(1.2713523,-1.4334815,1.1655781,1.0550174,1034.1176,16.572223)"
       gradientUnits="userSpaceOnUse"
       id="b"
       xlink:href="#C" />
    <linearGradient
       gradientTransform="matrix(1.7889874,0,0,1.8073584,1193.6019,269.94499)"
       y2="71.360001"
       x2="0"
       y1="58.509998"
       gradientUnits="userSpaceOnUse"
       id="c"
       xlink:href="#A" />
    <linearGradient
       gradientUnits="userSpaceOnUse"
       y2="46.986"
       x2="0"
       y1="4.414"
       id="d"
       xlink:href="#9"
       gradientTransform="matrix(1.568895,0,0,1.5850058,789.59138,250.68139)" />
    <linearGradient
       gradientUnits="userSpaceOnUse"
       y2="119.23"
       x2="0"
       y1="77.400002"
       id="e"
       xlink:href="#8"
       gradientTransform="matrix(1.568895,0,0,1.5850058,789.59138,250.68139)" />
    <marker
       inkscape:stockid="Arrow2Lend"
       orient="auto"
       refY="0"
       refX="0"
       id="marker5108-4"
       style="overflow:visible"
       inkscape:isstock="true">
      <path
         inkscape:connector-curvature="0"
         id="path5110-0"
         style="fill:#000000;fill-opacity:1;fill-rule:evenodd;stroke:#000000;stroke-width:0.625;stroke-linejoin:round;stroke-opacity:1"
         d="M 8.7185878,4.0337352 -2.2072895,0.01601326 8.7185884,-4.0017078 c -1.7454984,2.3720609 -1.7354408,5.6174519 -6e-7,8.035443 z"
         transform="matrix(-1.1,0,0,-1.1,-1.1,0)" />
    </marker>
    <linearGradient
       id="linearGradient1755">
      <stop
         offset="0"
         style="stop-color:#69db0d"
         id="stop1756" />
      <stop
         offset="1"
         style="stop-color:#387606"
         id="stop1757" />
    </linearGradient>
    <filter
       inkscape:label="Drop shadow"
       x="-0.25"
       y="-0.25"
       width="1.5"
       height="1.5"
       id="filter3005">
      <feGaussianBlur
         in="SourceAlpha"
         stdDeviation="1"
         result="blur"
         id="feGaussianBlur3007" />
      <feColorMatrix
         result="bluralpha"
         type="matrix"
         values="1 0 0 0 0 0 1 0 0 0 0 0 1 0 0 0 0 0 0.6 0 "
         id="feColorMatrix3009" />
      <feOffset
         in="bluralpha"
         dx="0"
         dy="2"
         result="offsetBlur"
         id="feOffset3011" />
      <feMerge
         id="feMerge3013">
        <feMergeNode
           in="offsetBlur"
           id="feMergeNode3015" />
        <feMergeNode
           in="SourceGraphic"
           id="feMergeNode3017" />
      </feMerge>
    </filter>
    <filter
       inkscape:label="Drop shadow"
       x="-0.25"
       y="-0.25"
       width="1.5"
       height="1.5"
       id="filter3019">
      <feGaussianBlur
         in="SourceAlpha"
         stdDeviation="1"
         result="blur"
         id="feGaussianBlur3021" />
      <feColorMatrix
         result="bluralpha"
         type="matrix"
         values="1 0 0 0 0 0 1 0 0 0 0 0 1 0 0 0 0 0 0.6 0 "
         id="feColorMatrix3023" />
      <feOffset
         in="bluralpha"
         dx="0"
         dy="2"
         result="offsetBlur"
         id="feOffset3025" />
      <feMerge
         id="feMerge3027">
        <feMergeNode
           in="offsetBlur"
           id="feMergeNode3029" />
        <feMergeNode
           in="SourceGraphic"
           id="feMergeNode3031" />
      </feMerge>
    </filter>
    <filter
       inkscape:label="Drop shadow"
       x="-0.25"
       y="-0.25"
       width="1.5"
       height="1.5"
       id="filter3033">
      <feGaussianBlur
         in="SourceAlpha"
         stdDeviation="1"
         result="blur"
         id="feGaussianBlur3035" />
      <feColorMatrix
         result="bluralpha"
         type="matrix"
         values="1 0 0 0 0 0 1 0 0 0 0 0 1 0 0 0 0 0 0.6 0 "
         id="feColorMatrix3037" />
      <feOffset
         in="bluralpha"
         dx="0"
         dy="2"
         result="offsetBlur"
         id="feOffset3039" />
      <feMerge
         id="feMerge3041">
        <feMergeNode
           in="offsetBlur"
           id="feMergeNode3043" />
        <feMergeNode
           in="SourceGraphic"
           id="feMergeNode3045" />
      </feMerge>
    </filter>
    <filter
       inkscape:label="Drop shadow"
       x="-0.25"
       y="-0.25"
       width="1.5"
       height="1.5"
       id="filter3005-4">
      <feGaussianBlur
         in="SourceAlpha"
         stdDeviation="1"
         result="blur"
         id="feGaussianBlur3007-0" />
      <feColorMatrix
         result="bluralpha"
         type="matrix"
         values="1 0 0 0 0 0 1 0 0 0 0 0 1 0 0 0 0 0 0.6 0 "
         id="feColorMatrix3009-1" />
      <feOffset
         in="bluralpha"
         dx="0"
         dy="2"
         result="offsetBlur"
         id="feOffset3011-3" />
      <feMerge
         id="feMerge3013-7">
        <feMergeNode
           in="offsetBlur"
           id="feMergeNode3015-4" />
        <feMergeNode
           in="SourceGraphic"
           id="feMergeNode3017-1" />
      </feMerge>
    </filter>
    <filter
       inkscape:label="Drop shadow"
       x="-0.25"
       y="-0.25"
       width="1.5"
       height="1.5"
       id="filter3019-1">
      <feGaussianBlur
         in="SourceAlpha"
         stdDeviation="1"
         result="blur"
         id="feGaussianBlur3021-3" />
      <feColorMatrix
         result="bluralpha"
         type="matrix"
         values="1 0 0 0 0 0 1 0 0 0 0 0 1 0 0 0 0 0 0.6 0 "
         id="feColorMatrix3023-0" />
      <feOffset
         in="bluralpha"
         dx="0"
         dy="2"
         result="offsetBlur"
         id="feOffset3025-3" />
      <feMerge
         id="feMerge3027-2">
        <feMergeNode
           in="offsetBlur"
           id="feMergeNode3029-1" />
        <feMergeNode
           in="SourceGraphic"
           id="feMergeNode3031-7" />
      </feMerge>
    </filter>
    <filter
       inkscape:label="Drop shadow"
       x="-0.25"
       y="-0.25"
       width="1.5"
       height="1.5"
       id="filter3033-5">
      <feGaussianBlur
         in="SourceAlpha"
         stdDeviation="1"
         result="blur"
         id="feGaussianBlur3035-6" />
      <feColorMatrix
         result="bluralpha"
         type="matrix"
         values="1 0 0 0 0 0 1 0 0 0 0 0 1 0 0 0 0 0 0.6 0 "
         id="feColorMatrix3037-5" />
      <feOffset
         in="bluralpha"
         dx="0"
         dy="2"
         result="offsetBlur"
         id="feOffset3039-4" />
      <feMerge
         id="feMerge3041-2">
        <feMergeNode
           in="offsetBlur"
           id="feMergeNode3043-2" />
        <feMergeNode
           in="SourceGraphic"
           id="feMergeNode3045-1" />
      </feMerge>
    </filter>
    <filter
       id="filter3811"
       style="color-interpolation-filters:sRGB">
      <feGaussianBlur
         stdDeviation="5.3046539"
         id="feGaussianBlur3813" />
    </filter>
    <filter
       id="filter3811-4"
       style="color-interpolation-filters:sRGB">
      <feGaussianBlur
         stdDeviation="5.3046539"
         id="feGaussianBlur3813-0" />
    </filter>
    <filter
       inkscape:label="Drop shadow"
       x="-0.25"
       y="-0.25"
       width="1.5"
       height="1.5"
       id="filter3005-4-6">
      <feGaussianBlur
         in="SourceAlpha"
         stdDeviation="1"
         result="blur"
         id="feGaussianBlur3007-0-8" />
      <feColorMatrix
         result="bluralpha"
         type="matrix"
         values="1 0 0 0 0 0 1 0 0 0 0 0 1 0 0 0 0 0 0.6 0 "
         id="feColorMatrix3009-1-0" />
      <feOffset
         in="bluralpha"
         dx="0"
         dy="2"
         result="offsetBlur"
         id="feOffset3011-3-2" />
      <feMerge
         id="feMerge3013-7-1">
        <feMergeNode
           in="offsetBlur"
           id="feMergeNode3015-4-0" />
        <feMergeNode
           in="SourceGraphic"
           id="feMergeNode3017-1-5" />
      </feMerge>
    </filter>
    <linearGradient
       inkscape:collect="always"
       x1="68"
       y1="-4"
       x2="68"
       gradientUnits="userSpaceOnUse"
       y2="44"
       id="linearGradient2997"
       gradientTransform="matrix(1.4229705,0,0,1.4365254,725.38695,220.21835)">
      <stop
         offset="0"
         style="stop-color:#ffffff"
         id="stop2993" />
      <stop
         offset=".5"
         style="stop-color:#ffffff"
         id="stop2999" />
      <stop
         offset="1"
         style="stop-color:#666666"
         id="stop2995" />
    </linearGradient>
    <filter
       inkscape:label="Drop shadow"
       x="-0.25"
       y="-0.25"
       width="1.5"
       height="1.5"
       id="filter3019-1-1">
      <feGaussianBlur
         in="SourceAlpha"
         stdDeviation="1"
         result="blur"
         id="feGaussianBlur3021-3-1" />
      <feColorMatrix
         result="bluralpha"
         type="matrix"
         values="1 0 0 0 0 0 1 0 0 0 0 0 1 0 0 0 0 0 0.6 0 "
         id="feColorMatrix3023-0-0" />
      <feOffset
         in="bluralpha"
         dx="0"
         dy="2"
         result="offsetBlur"
         id="feOffset3025-3-8" />
      <feMerge
         id="feMerge3027-2-5">
        <feMergeNode
           in="offsetBlur"
           id="feMergeNode3029-1-0" />
        <feMergeNode
           in="SourceGraphic"
           id="feMergeNode3031-7-6" />
      </feMerge>
    </filter>
    <filter
       inkscape:label="Drop shadow"
       x="-0.25"
       y="-0.25"
       width="1.5"
       height="1.5"
       id="filter3033-5-4">
      <feGaussianBlur
         in="SourceAlpha"
         stdDeviation="1"
         result="blur"
         id="feGaussianBlur3035-6-6" />
      <feColorMatrix
         result="bluralpha"
         type="matrix"
         values="1 0 0 0 0 0 1 0 0 0 0 0 1 0 0 0 0 0 0.6 0 "
         id="feColorMatrix3037-5-2" />
      <feOffset
         in="bluralpha"
         dx="0"
         dy="2"
         result="offsetBlur"
         id="feOffset3039-4-5" />
      <feMerge
         id="feMerge3041-2-8">
        <feMergeNode
           in="offsetBlur"
           id="feMergeNode3043-2-6" />
        <feMergeNode
           in="SourceGraphic"
           id="feMergeNode3045-1-2" />
      </feMerge>
    </filter>
    <marker
       inkscape:stockid="Arrow2Lend"
       orient="auto"
       refY="0"
       refX="0"
       id="marker5108-4-8"
       style="overflow:visible"
       inkscape:isstock="true">
      <path
         inkscape:connector-curvature="0"
         id="path5110-0-4"
         style="fill:#000000;fill-opacity:1;fill-rule:evenodd;stroke:#000000;stroke-width:0.625;stroke-linejoin:round;stroke-opacity:1"
         d="M 8.7185878,4.0337352 -2.2072895,0.01601326 8.7185884,-4.0017078 c -1.7454984,2.3720609 -1.7354408,5.6174519 -6e-7,8.035443 z"
         transform="matrix(-1.1,0,0,-1.1,-1.1,0)" />
    </marker>
    <marker
       inkscape:stockid="Arrow2Lend"
       orient="auto"
       refY="0"
       refX="0"
       id="marker5108-4-2"
       style="overflow:visible"
       inkscape:isstock="true">
      <path
         inkscape:connector-curvature="0"
         id="path5110-0-9"
         style="fill:#000000;fill-opacity:1;fill-rule:evenodd;stroke:#000000;stroke-width:0.625;stroke-linejoin:round;stroke-opacity:1"
         d="M 8.7185878,4.0337352 -2.2072895,0.01601326 8.7185884,-4.0017078 c -1.7454984,2.3720609 -1.7354408,5.6174519 -6e-7,8.035443 z"
         transform="matrix(-1.1,0,0,-1.1,-1.1,0)" />
    </marker>
    <marker
       inkscape:stockid="Arrow2Lend"
       orient="auto"
       refY="0"
       refX="0"
       id="marker5108-4-8-9"
       style="overflow:visible"
       inkscape:isstock="true">
      <path
         inkscape:connector-curvature="0"
         id="path5110-0-4-0"
         style="fill:#000000;fill-opacity:1;fill-rule:evenodd;stroke:#000000;stroke-width:0.625;stroke-linejoin:round;stroke-opacity:1"
         d="M 8.7185878,4.0337352 -2.2072895,0.01601326 8.7185884,-4.0017078 c -1.7454984,2.3720609 -1.7354408,5.6174519 -6e-7,8.035443 z"
         transform="matrix(-1.1,0,0,-1.1,-1.1,0)" />
    </marker>
    <marker
       inkscape:stockid="Arrow2Lend"
       orient="auto"
       refY="0"
       refX="0"
       id="marker5108-4-0"
       style="overflow:visible"
       inkscape:isstock="true">
      <path
         inkscape:connector-curvature="0"
         id="path5110-0-3"
         style="fill:#000000;fill-opacity:1;fill-rule:evenodd;stroke:#000000;stroke-width:0.625;stroke-linejoin:round;stroke-opacity:1"
         d="M 8.7185878,4.0337352 -2.2072895,0.01601326 8.7185884,-4.0017078 c -1.7454984,2.3720609 -1.7354408,5.6174519 -6e-7,8.035443 z"
         transform="matrix(-1.1,0,0,-1.1,-1.1,0)" />
    </marker>
    <marker
       inkscape:stockid="Arrow2Lend"
       orient="auto"
       refY="0"
       refX="0"
       id="marker5108-4-8-4"
       style="overflow:visible"
       inkscape:isstock="true">
      <path
         inkscape:connector-curvature="0"
         id="path5110-0-4-03"
         style="fill:#000000;fill-opacity:1;fill-rule:evenodd;stroke:#000000;stroke-width:0.625;stroke-linejoin:round;stroke-opacity:1"
         d="M 8.7185878,4.0337352 -2.2072895,0.01601326 8.7185884,-4.0017078 c -1.7454984,2.3720609 -1.7354408,5.6174519 -6e-7,8.035443 z"
         transform="matrix(-1.1,0,0,-1.1,-1.1,0)" />
    </marker>
  </defs>
  <sodipodi:namedview
     id="base"
     pagecolor="#ffffff"
     bordercolor="#666666"
     borderopacity="1.0"
     inkscape:pageopacity="0.0"
     inkscape:pageshadow="2"
     inkscape:zoom="1.7"
     inkscape:cx="331.94156"
     inkscape:cy="231.71033"
     inkscape:document-units="px"
     inkscape:current-layer="g5095-8"
     showgrid="false"
     inkscape:window-width="1600"
     inkscape:window-height="839"
     inkscape:window-x="0"
     inkscape:window-y="0"
     inkscape:window-maximized="1"
     fit-margin-top="0"
     fit-margin-left="0"
     fit-margin-right="0"
     fit-margin-bottom="0" />
  <metadata
     id="metadata7">
    <rdf:RDF>
      <cc:Work
         rdf:about="">
        <dc:format>image/svg+xml</dc:format>
        <dc:type
           rdf:resource="http://purl.org/dc/dcmitype/StillImage" />
        <dc:title />
      </cc:Work>
    </rdf:RDF>
  </metadata>
  <g
     inkscape:label="Layer 1"
     inkscape:groupmode="layer"
     id="layer1"
     transform="translate(-163.09716,434.11196)">
    <g
       id="g4301"
       transform="matrix(0.55558302,0,0,0.55598455,451.9609,-385.00304)">
      <rect
         ry="31.435585"
         rx="31.458303"
         y="-55.949158"
         x="237.43442"
         height="276.78937"
         width="221.21776"
         id="rect4291"
         style="color:#000000;clip-rule:nonzero;display:inline;overflow:visible;visibility:visible;opacity:1;isolation:auto;mix-blend-mode:normal;color-interpolation:sRGB;color-interpolation-filters:linearRGB;solid-color:#000000;solid-opacity:1;fill:#eefcfe;fill-opacity:1;fill-rule:nonzero;stroke:#000000;stroke-width:1.79926097;stroke-linecap:butt;stroke-linejoin:round;stroke-miterlimit:4;stroke-dasharray:none;stroke-dashoffset:0;stroke-opacity:1;color-rendering:auto;image-rendering:auto;shape-rendering:auto;text-rendering:auto;enable-background:accumulate" />
      <g
         inkscape:label="Layer 1"
         id="layer1-6-59"
         transform="matrix(0.6478061,0,0,0.6478061,102.7036,-321.41394)">
        <g
           transform="translate(1231.0309,463.97355)"
           id="g5591-2">
          <ellipse
             ry="26.071428"
             rx="147.14285"
             cy="602.7193"
             cx="328.57144"
             id="path5556-28"
             style="fill:url(#radialGradient5558-9)"
             transform="matrix(0.59257,0,0,1.0459,-1006.5909,-452.16569)" />
          <g
             transform="translate(1.9642857,90.952937)"
             id="g8136-97">
            <ellipse
               ry="26.071428"
               rx="147.14285"
               cy="602.7193"
               cx="328.57144"
               id="path8138-3"
               style="fill:#d45500"
               transform="matrix(0.47131,0,0,1.0459,-967.313,-561.51148)" />
            <path
               inkscape:connector-curvature="0"
               id="path8140-6"
               style="fill:#ff9955"
               d="m -881.654,23.78572 0,0.29457 c 0.006,-0.0975 0.0206,-0.19729 0.0295,-0.29457 l -0.0295,0 z m 138.62,0 c 0.0302,0.33044 0.0589,0.66821 0.0589,1.0015 l 0,-1.0015 -0.0589,0 z m 0.0589,1.0015 c -10e-6,15.052 -31.075,27.262 -69.356,27.262 -37.683,1e-5 -68.377,-11.828 -69.326,-26.555 l 0,40.68 c -0.0151,0.23376 -0.0147,0.45704 -0.0147,0.69223 0,0.22546 8.7e-4,0.45335 0.0147,0.67751 0.91151,14.741 31.619,26.599 69.326,26.599 37.708,0 68.415,-11.858 69.326,-26.599 l 0.0295,0 0,-0.50077 c 9.5e-4,-0.0587 0,-0.11794 0,-0.17674 0,-0.0588 9.4e-4,-0.11803 0,-0.17674 l 0,-41.902 z" />
            <ellipse
               ry="26.071428"
               rx="147.14285"
               cy="602.7193"
               cx="328.57144"
               id="path8142-1"
               style="fill:#ff6600"
               transform="matrix(0.47131,0,0,1.0459,-967.153,-605.43428)" />
            <ellipse
               ry="26.071428"
               rx="147.14285"
               cy="602.7193"
               cx="328.57144"
               id="path8144-2"
               style="fill:#ffb380"
               transform="matrix(0.46281,0,0,1.0271,-964.005,-595.98428)" />
          </g>
          <g
             id="g8126-93"
             transform="translate(1.9642857,45.476467)">
            <ellipse
               ry="26.071428"
               rx="147.14285"
               cy="602.7193"
               cx="328.57144"
               transform="matrix(0.47131,0,0,1.0459,-967.313,-561.51148)"
               style="fill:#d45500"
               id="path8128-1" />
            <path
               d="m -881.654,23.78572 0,0.29457 c 0.006,-0.0975 0.0206,-0.19729 0.0295,-0.29457 l -0.0295,0 z m 138.62,0 c 0.0302,0.33044 0.0589,0.66821 0.0589,1.0015 l 0,-1.0015 -0.0589,0 z m 0.0589,1.0015 c -10e-6,15.052 -31.075,27.262 -69.356,27.262 -37.683,1e-5 -68.377,-11.828 -69.326,-26.555 l 0,40.68 c -0.0151,0.23376 -0.0147,0.45704 -0.0147,0.69223 0,0.22546 8.7e-4,0.45335 0.0147,0.67751 0.91151,14.741 31.619,26.599 69.326,26.599 37.708,0 68.415,-11.858 69.326,-26.599 l 0.0295,0 0,-0.50077 c 9.5e-4,-0.0587 0,-0.11794 0,-0.17674 0,-0.0588 9.4e-4,-0.11803 0,-0.17674 l 0,-41.902 z"
               style="fill:#ff9955"
               id="path8130-9"
               inkscape:connector-curvature="0" />
            <ellipse
               ry="26.071428"
               rx="147.14285"
               cy="602.7193"
               cx="328.57144"
               transform="matrix(0.47131,0,0,1.0459,-967.153,-605.43428)"
               style="fill:#ff6600"
               id="path8132-4" />
            <ellipse
               ry="26.071428"
               rx="147.14285"
               cy="602.7193"
               cx="328.57144"
               transform="matrix(0.46281,0,0,1.0271,-964.005,-595.98428)"
               style="fill:#ffb380"
               id="path8134-7" />
          </g>
          <g
             id="g8120-8"
             transform="translate(1.9642857,0)">
            <ellipse
               ry="26.071428"
               rx="147.14285"
               cy="602.7193"
               cx="328.57144"
               id="path3861-1-4"
               style="fill:#d45500"
               transform="matrix(0.47131,0,0,1.0459,-967.313,-561.51148)" />
            <path
               inkscape:connector-curvature="0"
               id="path3863-8-5"
               style="fill:#ff9955"
               d="m -881.654,23.78572 0,0.29457 c 0.006,-0.0975 0.0206,-0.19729 0.0295,-0.29457 l -0.0295,0 z m 138.62,0 c 0.0302,0.33044 0.0589,0.66821 0.0589,1.0015 l 0,-1.0015 -0.0589,0 z m 0.0589,1.0015 c -10e-6,15.052 -31.075,27.262 -69.356,27.262 -37.683,1e-5 -68.377,-11.828 -69.326,-26.555 l 0,40.68 c -0.0151,0.23376 -0.0147,0.45704 -0.0147,0.69223 0,0.22546 8.7e-4,0.45335 0.0147,0.67751 0.91151,14.741 31.619,26.599 69.326,26.599 37.708,0 68.415,-11.858 69.326,-26.599 l 0.0295,0 0,-0.50077 c 9.5e-4,-0.0587 0,-0.11794 0,-0.17674 0,-0.0588 9.4e-4,-0.11803 0,-0.17674 l 0,-41.902 z" />
            <ellipse
               ry="26.071428"
               rx="147.14285"
               cy="602.7193"
               cx="328.57144"
               id="path3865-9-0"
               style="fill:#ff6600"
               transform="matrix(0.47131,0,0,1.0459,-967.153,-605.43428)" />
            <ellipse
               ry="26.071428"
               rx="147.14285"
               cy="602.7193"
               cx="328.57144"
               id="path3867-2-3"
               style="fill:#ffb380"
               transform="matrix(0.46281,0,0,1.0271,-964.005,-595.98428)" />
          </g>
        </g>
      </g>
      <g
         inkscape:label="Layer 1"
         id="layer1-6-5"
         transform="matrix(0.6478061,0,0,0.6478061,35.376457,-286.14735)">
        <g
           transform="translate(1231.0309,463.97355)"
           id="g5591-6">
          <ellipse
             ry="26.071428"
             rx="147.14285"
             cy="602.7193"
             cx="328.57144"
             id="path5556-2"
             style="fill:url(#radialGradient5558-3)"
             transform="matrix(0.59257,0,0,1.0459,-1006.5909,-452.16569)" />
          <g
             transform="translate(1.9642857,90.952937)"
             id="g8136-9">
            <ellipse
               ry="26.071428"
               rx="147.14285"
               cy="602.7193"
               cx="328.57144"
               id="path8138-1"
               style="fill:#d45500"
               transform="matrix(0.47131,0,0,1.0459,-967.313,-561.51148)" />
            <path
               inkscape:connector-curvature="0"
               id="path8140-2"
               style="fill:#ff9955"
               d="m -881.654,23.78572 0,0.29457 c 0.006,-0.0975 0.0206,-0.19729 0.0295,-0.29457 l -0.0295,0 z m 138.62,0 c 0.0302,0.33044 0.0589,0.66821 0.0589,1.0015 l 0,-1.0015 -0.0589,0 z m 0.0589,1.0015 c -10e-6,15.052 -31.075,27.262 -69.356,27.262 -37.683,1e-5 -68.377,-11.828 -69.326,-26.555 l 0,40.68 c -0.0151,0.23376 -0.0147,0.45704 -0.0147,0.69223 0,0.22546 8.7e-4,0.45335 0.0147,0.67751 0.91151,14.741 31.619,26.599 69.326,26.599 37.708,0 68.415,-11.858 69.326,-26.599 l 0.0295,0 0,-0.50077 c 9.5e-4,-0.0587 0,-0.11794 0,-0.17674 0,-0.0588 9.4e-4,-0.11803 0,-0.17674 l 0,-41.902 z" />
            <ellipse
               ry="26.071428"
               rx="147.14285"
               cy="602.7193"
               cx="328.57144"
               id="path8142-7"
               style="fill:#ff6600"
               transform="matrix(0.47131,0,0,1.0459,-967.153,-605.43428)" />
            <ellipse
               ry="26.071428"
               rx="147.14285"
               cy="602.7193"
               cx="328.57144"
               id="path8144-0"
               style="fill:#ffb380"
               transform="matrix(0.46281,0,0,1.0271,-964.005,-595.98428)" />
          </g>
          <g
             id="g8126-9"
             transform="translate(1.9642857,45.476467)">
            <ellipse
               ry="26.071428"
               rx="147.14285"
               cy="602.7193"
               cx="328.57144"
               transform="matrix(0.47131,0,0,1.0459,-967.313,-561.51148)"
               style="fill:#d45500"
               id="path8128-3" />
            <path
               d="m -881.654,23.78572 0,0.29457 c 0.006,-0.0975 0.0206,-0.19729 0.0295,-0.29457 l -0.0295,0 z m 138.62,0 c 0.0302,0.33044 0.0589,0.66821 0.0589,1.0015 l 0,-1.0015 -0.0589,0 z m 0.0589,1.0015 c -10e-6,15.052 -31.075,27.262 -69.356,27.262 -37.683,1e-5 -68.377,-11.828 -69.326,-26.555 l 0,40.68 c -0.0151,0.23376 -0.0147,0.45704 -0.0147,0.69223 0,0.22546 8.7e-4,0.45335 0.0147,0.67751 0.91151,14.741 31.619,26.599 69.326,26.599 37.708,0 68.415,-11.858 69.326,-26.599 l 0.0295,0 0,-0.50077 c 9.5e-4,-0.0587 0,-0.11794 0,-0.17674 0,-0.0588 9.4e-4,-0.11803 0,-0.17674 l 0,-41.902 z"
               style="fill:#ff9955"
               id="path8130-6"
               inkscape:connector-curvature="0" />
            <ellipse
               ry="26.071428"
               rx="147.14285"
               cy="602.7193"
               cx="328.57144"
               transform="matrix(0.47131,0,0,1.0459,-967.153,-605.43428)"
               style="fill:#ff6600"
               id="path8132-0" />
            <ellipse
               ry="26.071428"
               rx="147.14285"
               cy="602.7193"
               cx="328.57144"
               transform="matrix(0.46281,0,0,1.0271,-964.005,-595.98428)"
               style="fill:#ffb380"
               id="path8134-6" />
          </g>
          <g
             id="g8120-2"
             transform="translate(1.9642857,0)">
            <ellipse
               ry="26.071428"
               rx="147.14285"
               cy="602.7193"
               cx="328.57144"
               id="path3861-1-6"
               style="fill:#d45500"
               transform="matrix(0.47131,0,0,1.0459,-967.313,-561.51148)" />
            <path
               inkscape:connector-curvature="0"
               id="path3863-8-1"
               style="fill:#ff9955"
               d="m -881.654,23.78572 0,0.29457 c 0.006,-0.0975 0.0206,-0.19729 0.0295,-0.29457 l -0.0295,0 z m 138.62,0 c 0.0302,0.33044 0.0589,0.66821 0.0589,1.0015 l 0,-1.0015 -0.0589,0 z m 0.0589,1.0015 c -10e-6,15.052 -31.075,27.262 -69.356,27.262 -37.683,1e-5 -68.377,-11.828 -69.326,-26.555 l 0,40.68 c -0.0151,0.23376 -0.0147,0.45704 -0.0147,0.69223 0,0.22546 8.7e-4,0.45335 0.0147,0.67751 0.91151,14.741 31.619,26.599 69.326,26.599 37.708,0 68.415,-11.858 69.326,-26.599 l 0.0295,0 0,-0.50077 c 9.5e-4,-0.0587 0,-0.11794 0,-0.17674 0,-0.0588 9.4e-4,-0.11803 0,-0.17674 l 0,-41.902 z" />
            <ellipse
               ry="26.071428"
               rx="147.14285"
               cy="602.7193"
               cx="328.57144"
               id="path3865-9-8"
               style="fill:#ff6600"
               transform="matrix(0.47131,0,0,1.0459,-967.153,-605.43428)" />
            <ellipse
               ry="26.071428"
               rx="147.14285"
               cy="602.7193"
               cx="328.57144"
               id="path3867-2-7"
               style="fill:#ffb380"
               transform="matrix(0.46281,0,0,1.0271,-964.005,-595.98428)" />
          </g>
        </g>
      </g>
      <g
         inkscape:label="Layer 1"
         id="layer1-6"
         transform="matrix(0.6478061,0,0,0.6478061,117.50869,-267.34302)">
        <g
           transform="translate(1231.0309,463.97355)"
           id="g5591">
          <ellipse
             ry="26.071428"
             rx="147.14285"
             cy="602.7193"
             cx="328.57144"
             id="path5556"
             style="fill:url(#radialGradient5558)"
             transform="matrix(0.59257,0,0,1.0459,-1006.5909,-452.16569)" />
          <g
             transform="translate(1.9642857,90.952937)"
             id="g8136">
            <ellipse
               ry="26.071428"
               rx="147.14285"
               cy="602.7193"
               cx="328.57144"
               id="path8138"
               style="fill:#d45500"
               transform="matrix(0.47131,0,0,1.0459,-967.313,-561.51148)" />
            <path
               inkscape:connector-curvature="0"
               id="path8140"
               style="fill:#ff9955"
               d="m -881.654,23.78572 0,0.29457 c 0.006,-0.0975 0.0206,-0.19729 0.0295,-0.29457 l -0.0295,0 z m 138.62,0 c 0.0302,0.33044 0.0589,0.66821 0.0589,1.0015 l 0,-1.0015 -0.0589,0 z m 0.0589,1.0015 c -10e-6,15.052 -31.075,27.262 -69.356,27.262 -37.683,1e-5 -68.377,-11.828 -69.326,-26.555 l 0,40.68 c -0.0151,0.23376 -0.0147,0.45704 -0.0147,0.69223 0,0.22546 8.7e-4,0.45335 0.0147,0.67751 0.91151,14.741 31.619,26.599 69.326,26.599 37.708,0 68.415,-11.858 69.326,-26.599 l 0.0295,0 0,-0.50077 c 9.5e-4,-0.0587 0,-0.11794 0,-0.17674 0,-0.0588 9.4e-4,-0.11803 0,-0.17674 l 0,-41.902 z" />
            <ellipse
               ry="26.071428"
               rx="147.14285"
               cy="602.7193"
               cx="328.57144"
               id="path8142"
               style="fill:#ff6600"
               transform="matrix(0.47131,0,0,1.0459,-967.153,-605.43428)" />
            <ellipse
               ry="26.071428"
               rx="147.14285"
               cy="602.7193"
               cx="328.57144"
               id="path8144"
               style="fill:#ffb380"
               transform="matrix(0.46281,0,0,1.0271,-964.005,-595.98428)" />
          </g>
          <g
             id="g8126"
             transform="translate(1.9642857,45.476467)">
            <ellipse
               ry="26.071428"
               rx="147.14285"
               cy="602.7193"
               cx="328.57144"
               transform="matrix(0.47131,0,0,1.0459,-967.313,-561.51148)"
               style="fill:#d45500"
               id="path8128" />
            <path
               d="m -881.654,23.78572 0,0.29457 c 0.006,-0.0975 0.0206,-0.19729 0.0295,-0.29457 l -0.0295,0 z m 138.62,0 c 0.0302,0.33044 0.0589,0.66821 0.0589,1.0015 l 0,-1.0015 -0.0589,0 z m 0.0589,1.0015 c -10e-6,15.052 -31.075,27.262 -69.356,27.262 -37.683,1e-5 -68.377,-11.828 -69.326,-26.555 l 0,40.68 c -0.0151,0.23376 -0.0147,0.45704 -0.0147,0.69223 0,0.22546 8.7e-4,0.45335 0.0147,0.67751 0.91151,14.741 31.619,26.599 69.326,26.599 37.708,0 68.415,-11.858 69.326,-26.599 l 0.0295,0 0,-0.50077 c 9.5e-4,-0.0587 0,-0.11794 0,-0.17674 0,-0.0588 9.4e-4,-0.11803 0,-0.17674 l 0,-41.902 z"
               style="fill:#f8ff55;fill-opacity:1"
               id="path8130"
               inkscape:connector-curvature="0" />
            <ellipse
               ry="26.071428"
               rx="147.14285"
               cy="602.7193"
               cx="328.57144"
               transform="matrix(0.47131,0,0,1.0459,-967.153,-605.43428)"
               style="fill:#ff6600"
               id="path8132" />
            <ellipse
               ry="26.071428"
               rx="147.14285"
               cy="602.7193"
               cx="328.57144"
               transform="matrix(0.46281,0,0,1.0271,-964.005,-595.98428)"
               style="fill:#ffb380"
               id="path8134" />
          </g>
          <g
             id="g8120"
             transform="translate(1.9642857,0)">
            <ellipse
               ry="26.071428"
               rx="147.14285"
               cy="602.7193"
               cx="328.57144"
               id="path3861-1"
               style="fill:#d45500"
               transform="matrix(0.47131,0,0,1.0459,-967.313,-561.51148)" />
            <path
               inkscape:connector-curvature="0"
               id="path3863-8"
               style="fill:#ff9955"
               d="m -881.654,23.78572 0,0.29457 c 0.006,-0.0975 0.0206,-0.19729 0.0295,-0.29457 l -0.0295,0 z m 138.62,0 c 0.0302,0.33044 0.0589,0.66821 0.0589,1.0015 l 0,-1.0015 -0.0589,0 z m 0.0589,1.0015 c -10e-6,15.052 -31.075,27.262 -69.356,27.262 -37.683,1e-5 -68.377,-11.828 -69.326,-26.555 l 0,40.68 c -0.0151,0.23376 -0.0147,0.45704 -0.0147,0.69223 0,0.22546 8.7e-4,0.45335 0.0147,0.67751 0.91151,14.741 31.619,26.599 69.326,26.599 37.708,0 68.415,-11.858 69.326,-26.599 l 0.0295,0 0,-0.50077 c 9.5e-4,-0.0587 0,-0.11794 0,-0.17674 0,-0.0588 9.4e-4,-0.11803 0,-0.17674 l 0,-41.902 z" />
            <ellipse
               ry="26.071428"
               rx="147.14285"
               cy="602.7193"
               cx="328.57144"
               id="path3865-9"
               style="fill:#ff6600"
               transform="matrix(0.47131,0,0,1.0459,-967.153,-605.43428)" />
            <ellipse
               ry="26.071428"
               rx="147.14285"
               cy="602.7193"
               cx="328.57144"
               id="path3867-2"
               style="fill:#ffb380"
               transform="matrix(0.46281,0,0,1.0271,-964.005,-595.98428)" />
          </g>
          <text
             xml:space="preserve"
             style="font-style:normal;font-variant:normal;font-weight:normal;font-stretch:normal;line-height:0%;font-family:'Helvetica Narrow';-inkscape-font-specification:'Helvetica Narrow, Normal';text-align:start;letter-spacing:0px;word-spacing:0px;writing-mode:lr-tb;text-anchor:start;fill:#000000;fill-opacity:1;stroke:none;stroke-width:1px;stroke-linecap:butt;stroke-linejoin:miter;stroke-opacity:1"
             x="-829.67297"
             y="134.97586"
             id="text5405"
             transform="scale(1.0003613,0.99963884)"><tspan
               sodipodi:role="line"
               id="tspan5407"
               x="-829.67297"
               y="134.97586"
               style="font-size:48.60569763px;line-height:1.25">X</tspan></text>
        </g>
      </g>
      <text
         id="text4287"
         y="207.72966"
         x="279.18097"
         style="font-style:normal;font-variant:normal;font-weight:normal;font-stretch:normal;line-height:0%;font-family:'Helvetica Narrow';-inkscape-font-specification:'Helvetica Narrow, Normal';text-align:start;letter-spacing:0px;word-spacing:0px;writing-mode:lr-tb;text-anchor:start;fill:#000000;fill-opacity:1;stroke:none;stroke-width:1px;stroke-linecap:butt;stroke-linejoin:miter;stroke-opacity:1"
         xml:space="preserve"><tspan
           y="207.72966"
           x="279.18097"
           id="tspan4289"
           sodipodi:role="line"
           style="font-size:49.47967529px;line-height:1.25">SGBD</tspan></text>
    </g>
    <g
       id="g4301-1"
       transform="matrix(0.55558302,0,0,0.55598455,43.742467,-384.65828)">
      <rect
         ry="31.435585"
         rx="31.458303"
         y="-55.949158"
         x="229.34108"
         height="276.78937"
         width="221.21776"
         id="rect4291-4"
         style="color:#000000;clip-rule:nonzero;display:inline;overflow:visible;visibility:visible;opacity:1;isolation:auto;mix-blend-mode:normal;color-interpolation:sRGB;color-interpolation-filters:linearRGB;solid-color:#000000;solid-opacity:1;fill:#feeefe;fill-opacity:1;fill-rule:nonzero;stroke:#000000;stroke-width:1.79926097;stroke-linecap:butt;stroke-linejoin:round;stroke-miterlimit:4;stroke-dasharray:none;stroke-dashoffset:0;stroke-opacity:1;color-rendering:auto;image-rendering:auto;shape-rendering:auto;text-rendering:auto;enable-background:accumulate" />
      <text
         id="text4287-3"
         y="204.13243"
         x="264.93909"
         style="font-style:normal;font-variant:normal;font-weight:normal;font-stretch:normal;line-height:0%;font-family:'Helvetica Narrow';-inkscape-font-specification:'Helvetica Narrow, Normal';text-align:start;letter-spacing:0px;word-spacing:0px;writing-mode:lr-tb;text-anchor:start;fill:#000000;fill-opacity:1;stroke:none;stroke-width:1px;stroke-linecap:butt;stroke-linejoin:miter;stroke-opacity:1"
         xml:space="preserve"><tspan
           sodipodi:role="line"
           id="tspan4591"
           x="264.93909"
           y="204.13243"
           style="font-size:49.47967529px;line-height:1.25">APPLI</tspan></text>
      <g
         id="g4475"
         transform="matrix(1.799911,0,0,1.7986111,270.45834,-40.420971)">
        <rect
           x="3.7788999"
           y="9.9750004"
           sodipodi:stroke-cmyk="(0.0000000 0.0000000 0.0000000 0.80000001)"
           width="52.723999"
           height="39.588001"
           transform="matrix(0.95153,0,0,1.09,1.6893,-2.3205)"
           rx="2"
           style="fill:#cccccc;fill-rule:evenodd;stroke:#333333;stroke-width:3.06839991;stroke-linecap:round;stroke-linejoin:round;stroke-dasharray:3.0684409, 3.0684409"
           id="rect828"
           ry="2" />
        <rect
           x="4.4986"
           y="5.4763999"
           sodipodi:stroke-cmyk="(0.0000000 0.0000000 0.0000000 0.80000001)"
           width="4.1388001"
           height="4.1388001"
           transform="matrix(1.167,0,0,1.167,-2.2663,-0.090228)"
           rx="0.15700001"
           style="fill:#575757;fill-rule:evenodd;stroke:#333333;stroke-width:1.60669994;stroke-linejoin:round"
           id="rect829"
           ry="0.15700001" />
        <rect
           x="52.59"
           y="9.7194996"
           sodipodi:stroke-cmyk="(0.0000000 0.0000000 0.0000000 0.80000001)"
           width="4.8298001"
           height="4.8298001"
           transform="translate(0.17995,-3.419)"
           rx="0.18321"
           style="fill:#575757;fill-rule:evenodd;stroke:#333333;stroke-width:1.875;stroke-linejoin:round"
           id="rect830"
           ry="0.18321" />
        <rect
           x="27.966999"
           y="9.7194996"
           sodipodi:stroke-cmyk="(0.0000000 0.0000000 0.0000000 0.80000001)"
           width="4.8298001"
           height="4.8298001"
           transform="translate(0.35989,-3.419)"
           rx="0.18321"
           style="fill:#575757;fill-rule:evenodd;stroke:#333333;stroke-width:1.875;stroke-linejoin:round"
           id="rect832"
           ry="0.18321" />
        <rect
           x="2.9835"
           y="48.695999"
           sodipodi:stroke-cmyk="(0.0000000 0.0000000 0.0000000 0.80000001)"
           width="4.8298001"
           height="4.8298001"
           transform="translate(0,0.53984)"
           rx="0.18321"
           style="fill:#575757;fill-rule:evenodd;stroke:#333333;stroke-width:1.875;stroke-linejoin:round"
           id="rect833"
           ry="0.18321" />
        <rect
           x="52.77"
           y="48.695999"
           sodipodi:stroke-cmyk="(0.0000000 0.0000000 0.0000000 0.80000001)"
           width="4.8298001"
           height="4.8298001"
           transform="translate(0,0.53984)"
           rx="0.18321"
           style="fill:#575757;fill-rule:evenodd;stroke:#333333;stroke-width:1.875;stroke-linejoin:round"
           id="rect834"
           ry="0.18321" />
        <rect
           x="28.326"
           y="48.695999"
           sodipodi:stroke-cmyk="(0.0000000 0.0000000 0.0000000 0.80000001)"
           width="4.8298001"
           height="4.8298001"
           transform="translate(0,0.53984)"
           rx="0.18321"
           style="fill:#575757;fill-rule:evenodd;stroke:#333333;stroke-width:1.875;stroke-linejoin:round"
           id="rect835"
           ry="0.18321" />
        <rect
           x="2.9835"
           y="30.618999"
           sodipodi:stroke-cmyk="(0.0000000 0.0000000 0.0000000 0.80000001)"
           width="4.8298001"
           height="4.8298001"
           transform="translate(0,-3.0591)"
           rx="0.18321"
           style="fill:#575757;fill-rule:evenodd;stroke:#333333;stroke-width:1.875;stroke-linejoin:round"
           id="rect836"
           ry="0.18321" />
        <rect
           x="52.77"
           y="30.618999"
           sodipodi:stroke-cmyk="(0.0000000 0.0000000 0.0000000 0.80000001)"
           width="4.8298001"
           height="4.8298001"
           transform="translate(0,-3.0591)"
           rx="0.18321"
           style="fill:#575757;fill-rule:evenodd;stroke:#333333;stroke-width:1.875;stroke-linejoin:round"
           id="rect837"
           ry="0.18321" />
        <path
           d="m 27.825,25.076 0,-3.791 -0.217,0 c -0.308,0 -0.549,-0.072 -0.72,-0.217 -0.176,-0.144 -0.264,-0.363 -0.264,-0.656 0,-0.297 0.088,-0.516 0.264,-0.656 0.171,-0.141 0.412,-0.211 0.72,-0.211 l 0.217,0 0,-1.236 c 0,-0.282 0.086,-0.516 0.258,-0.704 0.172,-0.187 0.396,-0.281 0.674,-0.281 0.281,0 0.508,0.094 0.679,0.281 0.172,0.188 0.258,0.422 0.258,0.704 l 0,1.236 0.516,0 c 0.316,0 0.558,0.07 0.726,0.211 0.172,0.14 0.258,0.359 0.258,0.656 0,0.293 -0.086,0.512 -0.258,0.656 -0.168,0.145 -0.41,0.217 -0.726,0.217 l -0.516,0 0,3.791 c 0,0.278 -0.088,0.512 -0.263,0.703 -0.172,0.188 -0.397,0.282 -0.674,0.282 -0.274,0 -0.498,-0.094 -0.674,-0.282 -0.172,-0.191 -0.258,-0.425 -0.258,-0.703 z m -6.639,-0.767 1.594,-1.717 -0.967,-1.043 c -0.234,-0.25 -0.392,-0.42 -0.474,-0.51 -0.078,-0.094 -0.139,-0.185 -0.182,-0.275 -0.043,-0.094 -0.064,-0.2 -0.064,-0.317 0,-0.281 0.091,-0.513 0.275,-0.697 0.184,-0.184 0.391,-0.275 0.621,-0.275 0.223,0 0.399,0.031 0.527,0.093 0.129,0.063 0.262,0.184 0.399,0.364 l 0.996,1.248 0.996,-1.248 c 0.145,-0.18 0.279,-0.301 0.404,-0.364 0.125,-0.062 0.299,-0.093 0.522,-0.093 0.23,0 0.437,0.089 0.621,0.269 0.184,0.18 0.275,0.414 0.275,0.703 0,0.117 -0.021,0.223 -0.064,0.317 -0.043,0.09 -0.106,0.181 -0.188,0.275 -0.078,0.09 -0.234,0.26 -0.468,0.51 l -0.967,1.043 1.594,1.717 c 0.101,0.109 0.187,0.228 0.257,0.357 0.075,0.125 0.112,0.273 0.112,0.445 0,0.285 -0.092,0.516 -0.276,0.692 -0.183,0.172 -0.41,0.258 -0.679,0.258 -0.176,0 -0.321,-0.038 -0.434,-0.112 -0.109,-0.074 -0.242,-0.197 -0.398,-0.369 l -1.307,-1.547 -1.307,1.547 c -0.136,0.156 -0.265,0.275 -0.386,0.357 -0.121,0.083 -0.27,0.124 -0.446,0.124 -0.269,0 -0.496,-0.086 -0.679,-0.258 -0.184,-0.176 -0.276,-0.407 -0.276,-0.692 0,-0.168 0.032,-0.31 0.094,-0.427 0.066,-0.118 0.158,-0.243 0.275,-0.375 z m -3.357,0.767 0,-3.791 -0.217,0 c -0.308,0 -0.549,-0.072 -0.721,-0.217 -0.175,-0.144 -0.263,-0.363 -0.263,-0.656 0,-0.297 0.088,-0.516 0.263,-0.656 0.172,-0.141 0.413,-0.211 0.721,-0.211 l 0.217,0 0,-1.236 c 0,-0.282 0.086,-0.516 0.258,-0.704 0.172,-0.187 0.396,-0.281 0.674,-0.281 0.281,0 0.507,0.094 0.679,0.281 0.172,0.188 0.258,0.422 0.258,0.704 l 0,1.236 0.516,0 c 0.316,0 0.558,0.07 0.726,0.211 0.172,0.14 0.258,0.359 0.258,0.656 0,0.293 -0.086,0.512 -0.258,0.656 -0.168,0.145 -0.41,0.217 -0.726,0.217 l -0.516,0 0,3.791 c 0,0.278 -0.088,0.512 -0.264,0.703 -0.171,0.188 -0.396,0.282 -0.673,0.282 -0.274,0 -0.498,-0.094 -0.674,-0.282 -0.172,-0.191 -0.258,-0.425 -0.258,-0.703 z"
           transform="matrix(2.052,0,0,2.052,-23.072,-13.844)"
           style="fill:#333333;stroke-width:1pt"
           id="path838"
           inkscape:connector-curvature="0" />
        <path
           sodipodi:stroke-cmyk="(0.0000000 0.0000000 0.0000000 0.80000001)"
           transform="matrix(1,0,0,1.2829,-1.4396,-6.6363)"
           sodipodi:nodetypes="cccccc"
           d="m 42.647,18.612 7.558,0 m -3.599,0 0,19.974 m -3.959,0.54 7.738,0"
           style="fill:none;stroke:#333333;stroke-width:2.75909996;stroke-linecap:round;stroke-linejoin:round"
           id="path862"
           inkscape:connector-curvature="0" />
      </g>
      <g
         transform="matrix(1.2648969,0,0,1.2520567,259.09922,-1183.3241)"
         inkscape:label="Layer 1"
         id="layer1-4">
        <rect
           x="0"
           y="0"
           width="140"
           height="40"
           transform="translate(0,1012.4)"
           rx="14.229703"
           style="fill:#b3b3b3;fill-rule:evenodd;stroke:#666666;stroke-width:0.71486592;filter:url(#filter3005-4-6)"
           id="rect2987"
           ry="14.365252" />
        <rect
           x="0"
           y="0"
           width="140"
           height="40"
           transform="translate(0,1012.4)"
           rx="14.229703"
           style="fill:url(#linearGradient2997);fill-rule:evenodd;stroke:#666666;stroke-width:0.71486592;filter:url(#filter3019-1-1)"
           id="rect2989"
           ry="14.365252" />
        <text
           x="47.221745"
           y="1043.9594"
           xml:space="preserve"
           style="font-style:normal;font-variant:normal;font-weight:normal;font-stretch:normal;line-height:0%;font-family:sans-serif;-inkscape-font-specification:'Sans, Normal';text-align:start;letter-spacing:0px;word-spacing:0px;writing-mode:lr-tb;text-anchor:start;fill:#000000;filter:url(#filter3033-5-4)"
           id="text3001"><tspan
             sodipodi:role="line"
             id="tspan9510"
             x="47.221745"
             y="1043.9594"
             style="font-size:30px;line-height:1.25;font-family:sans-serif">OK</tspan></text>
      </g>
    </g>
    <flowRoot
       xml:space="preserve"
       id="flowRoot4644"
       style="font-style:normal;font-variant:normal;font-weight:normal;font-stretch:normal;line-height:0.01%;font-family:'Helvetica Narrow';-inkscape-font-specification:'Helvetica Narrow, Normal';text-align:start;letter-spacing:0px;word-spacing:0px;writing-mode:lr-tb;text-anchor:start;fill:#000000;fill-opacity:1;stroke:none;stroke-width:1px;stroke-linecap:butt;stroke-linejoin:miter;stroke-opacity:1"
       transform="translate(164.94196,-433.69691)"><flowRegion
         id="flowRegion4646"><rect
           id="rect4648"
           width="189.75363"
           height="76.44104"
           x="-348.03156"
           y="-61.060875" /></flowRegion><flowPara
         id="flowPara4650"
         style="font-size:15px;line-height:1.25"> </flowPara></flowRoot>    <g
       id="g5095-8"
       transform="translate(-4.3406047,43.895066)">
      <path
         inkscape:connector-curvature="0"
         id="path4638-1"
         d="m 327.88937,-389.53895 218.53144,0"
         style="fill:none;fill-rule:evenodd;stroke:#000000;stroke-width:1.20000005;stroke-linecap:butt;stroke-linejoin:miter;stroke-miterlimit:4;stroke-dasharray:none;stroke-opacity:1;marker-end:url(#marker5108-4-2)" />
      <text
         id="text4640-3"
         y="-400.33066"
         x="379.7493"
         style="font-style:normal;font-variant:normal;font-weight:normal;font-stretch:normal;line-height:0%;font-family:'Helvetica Narrow';-inkscape-font-specification:'Helvetica Narrow, Normal';text-align:start;letter-spacing:0px;word-spacing:0px;writing-mode:lr;text-anchor:start;fill:#000000;fill-opacity:1;stroke:none;stroke-width:1px;stroke-linecap:butt;stroke-linejoin:miter;stroke-opacity:1;font-size:22.5000001px;font-variant-ligatures:normal;font-variant-caps:normal;font-variant-numeric:normal;font-feature-settings:normal;"
         xml:space="preserve"><tspan
           sodipodi:role="line"
           id="tspan9341"
           x="379.7493"
           y="-400.33066"
           style="font-size:22.5000001px;line-height:1.25;-inkscape-font-specification:'Helvetica Narrow, Normal';font-family:'Helvetica Narrow';font-weight:normal;font-style:normal;font-stretch:normal;font-variant:normal;text-anchor:start;text-align:start;writing-mode:lr;font-variant-ligatures:normal;font-variant-caps:normal;font-variant-numeric:normal;font-feature-settings:normal;">Appel routine X</tspan></text>
      <path
         inkscape:connector-curvature="0"
         id="path4638-7-1"
         d="m 548.42686,-375.12891 -218.53144,0"
         style="fill:none;fill-rule:evenodd;stroke:#000000;stroke-width:1.20000005;stroke-linecap:butt;stroke-linejoin:miter;stroke-miterlimit:4;stroke-dasharray:none;stroke-opacity:1;marker-end:url(#marker5108-4-8-9)" />
    </g>
  </g>
</svg>
