#FIG 3.2  Produced by xfig version 3.2.5b
Landscape
Center
Metric
A4      
100.00
Single
-2
1200 2
0 32 #c6b797
0 33 #eff8ff
0 34 #dccba6
0 35 #404040
0 36 #808080
0 37 #c0c0c0
0 38 #e0e0e0
0 39 #8e8f8e
0 40 #aaaaaa
0 41 #555555
0 42 #c7c3c7
0 43 #565151
0 44 #8e8e8e
0 45 #d7d7d7
0 46 #85807d
0 47 #d2d2d2
0 48 #3a3a3a
0 49 #4573aa
0 50 #aeaeae
0 51 #7b79a5
0 52 #444444
0 53 #73758c
0 54 #f7f7f7
0 55 #414541
0 56 #635dce
0 57 #bebebe
0 58 #515151
0 59 #e7e3e7
0 60 #000049
0 61 #797979
0 62 #303430
0 63 #414141
0 64 #c7b696
6 3645 2160 4897 3616
6 3645 2160 4897 3616
5 1 0 1 0 7 50 -1 -1 4.000 0 1 0 0 4271.000 2564.942 3645 3408 4270 3615 4897 3408
1 2 0 1 7 51 53 -1 20 0.000 1 0.0000 4270 3408 624 207 3646 3408 4894 3408
1 2 0 1 0 19 50 -1 20 0.000 1 0.0000 4270 2367 624 207 3646 2367 4894 2367
2 1 0 1 0 7 50 -1 -1 4.000 0 0 -1 0 0 2
	 3645 2367 3645 3408
2 2 0 1 7 7 55 -1 20 0.000 0 0 -1 0 0 5
	 3645 2367 4897 2367 4897 3408 3645 3408 3645 2367
2 1 0 1 0 7 50 -1 -1 4.000 0 0 -1 0 0 2
	 4897 2367 4897 3408
-6
4 0 0 50 -1 22 16 0.0000 4 255 630 3968 2900 Image\001
4 0 0 50 -1 22 16 0.0000 4 195 330 4103 3170 BD\001
-6
6 5813 4215 6795 5355
6 5813 4215 6795 5355
5 1 0 1 0 7 50 -1 -1 4.000 0 1 0 0 6304.000 4533.991 5813 5192 6303 5355 6795 5192
1 2 0 1 7 51 53 -1 20 0.000 1 0.0000 6303 5192 489 163 5815 5192 6792 5192
1 2 0 1 0 39 50 -1 20 0.000 1 0.0000 6303 4376 489 163 5815 4376 6792 4376
2 1 0 1 0 7 50 -1 -1 4.000 0 0 -1 0 0 2
	 5813 4376 5813 5192
2 2 0 1 7 7 55 -1 20 0.000 0 0 -1 0 0 5
	 5813 4376 6795 4376 6795 5192 5813 5192 5813 4376
2 1 0 1 0 7 50 -1 -1 4.000 0 0 -1 0 0 2
	 6795 4376 6795 5192
-6
4 0 0 50 -1 22 12 0.0000 4 153 258 6172 4900 BD\001
-6
6 5858 750 6840 1890
6 5858 750 6840 1890
5 1 0 1 0 7 50 -1 -1 4.000 0 1 0 0 6349.000 1068.991 5858 1727 6348 1890 6840 1727
1 2 0 1 7 51 53 -1 20 0.000 1 0.0000 6348 1727 489 163 5860 1727 6837 1727
1 2 0 1 0 39 50 -1 20 0.000 1 0.0000 6348 911 489 163 5860 911 6837 911
2 1 0 1 0 7 50 -1 -1 4.000 0 0 -1 0 0 2
	 5858 911 5858 1727
2 2 0 1 7 7 55 -1 20 0.000 0 0 -1 0 0 5
	 5858 911 6840 911 6840 1727 5858 1727 5858 911
2 1 0 1 0 7 50 -1 -1 4.000 0 0 -1 0 0 2
	 6840 911 6840 1727
-6
4 0 0 50 -1 22 12 0.0000 4 153 258 6217 1435 BD\001
-6
6 7740 2205 8992 3661
6 7740 2205 8992 3661
5 1 0 1 0 7 50 -1 -1 4.000 0 1 0 0 8366.000 2609.942 7740 3453 8365 3660 8992 3453
1 2 0 1 7 53 53 -1 20 0.000 1 0.0000 8365 3453 624 207 7741 3453 8989 3453
1 2 0 1 0 60 50 -1 20 0.000 1 0.0000 8365 2412 624 207 7741 2412 8989 2412
2 1 0 1 0 7 50 -1 -1 4.000 0 0 -1 0 0 2
	 7740 2412 7740 3453
2 2 0 1 7 7 55 -1 20 0.000 0 0 -1 0 0 5
	 7740 2412 8992 2412 8992 3453 7740 3453 7740 2412
2 1 0 1 0 7 50 -1 -1 4.000 0 0 -1 0 0 2
	 8992 2412 8992 3453
-6
4 0 0 50 -1 22 16 0.0000 4 255 630 8063 2945 Image\001
4 0 0 50 -1 22 16 0.0000 4 195 330 8198 3215 BD\001
-6
2 1 0 4 0 7 50 -1 -1 0.000 0 0 -1 1 0 2
	1 1 1.00 210.00 150.00
	 6300 1800 6300 4230
2 1 0 1 0 7 50 -1 -1 0.000 0 0 -1 1 0 2
	1 0 1.00 120.00 180.00
	 5625 2385 6300 2385
2 1 0 1 0 7 50 -1 -1 0.000 0 0 -1 1 0 2
	1 0 1.00 120.00 180.00
	 5625 3645 6300 3645
2 1 0 1 0 7 50 -1 -1 0.000 0 0 -1 1 0 2
	1 0 1.00 120.00 180.00
	 6975 2700 6300 2700
2 1 0 1 0 7 50 -1 -1 0.000 0 0 -1 1 0 2
	1 0 1.00 120.00 180.00
	 6975 3465 6300 3465
4 0 0 50 -1 22 16 0.0000 4 195 1425 3645 1800 Transaction 1\001
4 0 18 50 -1 22 18 0.0000 4 270 660 5130 2250 begin\001
4 0 18 50 -1 22 18 0.0000 4 210 900 5085 3555 commit\001
4 0 8 50 -1 22 18 0.0000 4 270 660 6660 2565 begin\001
4 0 8 50 -1 22 18 0.0000 4 210 900 6660 3330 commit\001
4 0 0 50 -1 22 16 0.0000 4 195 1425 7785 1980 Transaction 2\001
