#FIG 3.2  Produced by xfig version 3.2.5c
Landscape
Center
Metric
A4      
100.00
Single
-2
1200 2
6 7155 1901 9585 4321
6 7478 3072 7624 3218
2 1 0 1 0 7 50 -1 -1 0.000 0 0 -1 0 0 2
	 7478 3072 7624 3218
2 1 0 1 0 7 50 -1 -1 0.000 0 0 -1 0 0 2
	 7478 3218 7624 3072
-6
6 8443 3599 8589 3745
2 1 0 1 0 7 50 -1 -1 0.000 0 0 -1 0 0 2
	 8443 3599 8589 3745
2 1 0 1 0 7 50 -1 -1 0.000 0 0 -1 0 0 2
	 8443 3745 8589 3599
-6
6 7829 2926 7975 3072
2 1 0 1 0 7 50 -1 -1 0.000 0 0 -1 0 0 2
	 7829 2926 7975 3072
2 1 0 1 0 7 50 -1 -1 0.000 0 0 -1 0 0 2
	 7829 3072 7975 2926
-6
6 7695 3690 7841 3836
2 1 0 1 0 7 50 -1 -1 0.000 0 0 -1 0 0 2
	 7695 3690 7841 3836
2 1 0 1 0 7 50 -1 -1 0.000 0 0 -1 0 0 2
	 7695 3836 7841 3690
-6
6 8100 3330 8246 3476
2 1 0 1 0 7 50 -1 -1 0.000 0 0 -1 0 0 2
	 8100 3330 8246 3476
2 1 0 1 0 7 50 -1 -1 0.000 0 0 -1 0 0 2
	 8100 3476 8246 3330
-6
6 8505 3150 8651 3296
2 1 0 1 0 7 50 -1 -1 0.000 0 0 -1 0 0 2
	 8505 3150 8651 3296
2 1 0 1 0 7 50 -1 -1 0.000 0 0 -1 0 0 2
	 8505 3296 8651 3150
-6
6 8955 3330 9102 3476
2 1 0 1 0 7 50 -1 -1 0.000 0 0 -1 0 0 2
	 8955 3330 9102 3476
2 1 0 1 0 7 50 -1 -1 0.000 0 0 -1 0 0 2
	 8955 3476 9102 3330
-6
6 7695 2565 7841 2711
2 1 0 1 0 7 50 -1 -1 0.000 0 0 -1 0 0 2
	 7695 2565 7841 2711
2 1 0 1 0 7 50 -1 -1 0.000 0 0 -1 0 0 2
	 7695 2711 7841 2565
-6
6 8235 2340 8381 2486
2 1 0 1 0 7 50 -1 -1 0.000 0 0 -1 0 0 2
	 8235 2340 8381 2486
2 1 0 1 0 7 50 -1 -1 0.000 0 0 -1 0 0 2
	 8235 2486 8381 2340
-6
6 8297 2721 8443 2868
2 1 0 1 0 7 50 -1 -1 0.000 0 0 7 0 0 2
	 8297 2721 8443 2868
2 1 0 1 0 7 50 -1 -1 0.000 0 0 7 0 0 2
	 8297 2868 8443 2721
-6
3 1 0 2 0 11 60 -1 20 0.000 0 0 0 7
	 8955 2520 9584 3482 8794 4184 7245 4320 7156 3277 7332 2341
	 8238 1902
	 1.000 1.000 1.000 1.000 1.000 1.000 1.000
-6
6 1800 1935 4275 4275
6 2531 2526 2677 2672
2 1 0 1 0 7 50 -1 -1 0.000 0 0 -1 0 0 2
	 2531 2526 2677 2672
2 1 0 1 0 7 50 -1 -1 0.000 0 0 -1 0 0 2
	 2531 2672 2677 2526
-6
6 2151 3140 2297 3286
2 1 0 1 0 7 50 -1 -1 0.000 0 0 -1 0 0 2
	 2151 3140 2297 3286
2 1 0 1 0 7 50 -1 -1 0.000 0 0 -1 0 0 2
	 2151 3286 2297 3140
-6
6 3145 2526 3291 2672
2 1 0 1 0 7 50 -1 -1 0.000 0 0 -1 0 0 2
	 3145 2526 3291 2672
2 1 0 1 0 7 50 -1 -1 0.000 0 0 -1 0 0 2
	 3145 2672 3291 2526
-6
6 2707 3491 2853 3637
2 1 0 1 0 7 50 -1 -1 0.000 0 0 -1 0 0 2
	 2707 3491 2853 3637
2 1 0 1 0 7 50 -1 -1 0.000 0 0 -1 0 0 2
	 2707 3637 2853 3491
-6
6 3116 3667 3262 3813
2 1 0 1 0 7 50 -1 -1 0.000 0 0 -1 0 0 2
	 3116 3667 3262 3813
2 1 0 1 0 7 50 -1 -1 0.000 0 0 -1 0 0 2
	 3116 3813 3262 3667
-6
6 3525 3433 3672 3579
2 1 0 1 0 7 50 -1 -1 0.000 0 0 -1 0 0 2
	 3525 3433 3672 3579
2 1 0 1 0 7 50 -1 -1 0.000 0 0 -1 0 0 2
	 3525 3579 3672 3433
-6
6 2502 2994 2648 3140
2 1 0 1 0 7 50 -1 -1 0.000 0 0 -1 0 0 2
	 2502 2994 2648 3140
2 1 0 1 0 7 50 -1 -1 0.000 0 0 -1 0 0 2
	 2502 3140 2648 2994
-6
6 2970 2789 3116 2936
2 1 0 1 0 7 50 -1 -1 0.000 0 0 7 0 0 2
	 2970 2789 3116 2936
2 1 0 1 0 7 50 -1 -1 0.000 0 0 7 0 0 2
	 2970 2936 3116 2789
-6
6 3499 2824 3645 2970
2 1 0 1 0 7 50 -1 -1 0.000 0 0 -1 0 0 2
	 3499 2824 3645 2970
2 1 0 1 0 7 50 -1 -1 0.000 0 0 -1 0 0 2
	 3499 2970 3645 2824
-6
6 3060 3195 3206 3341
2 1 0 1 0 7 50 -1 -1 0.000 0 0 -1 0 0 2
	 3060 3195 3206 3341
2 1 0 1 0 7 50 -1 -1 0.000 0 0 -1 0 0 2
	 3060 3341 3206 3195
-6
3 1 0 2 0 30 60 -1 20 0.000 0 0 0 7
	 3789 2438 4257 3550 3467 4252 2414 3988 1829 3345 2005 2409
	 2911 1970
	 1.000 1.000 1.000 1.000 1.000 1.000 1.000
-6
6 4614 304 6868 2588
6 5141 861 5287 1007
2 1 0 1 0 7 50 -1 -1 0.000 0 0 -1 0 0 2
	 5141 861 5287 1007
2 1 0 1 0 7 50 -1 -1 0.000 0 0 -1 0 0 2
	 5141 1007 5287 861
-6
6 5726 2002 5872 2148
2 1 0 1 0 7 50 -1 -1 0.000 0 0 -1 0 0 2
	 5726 2002 5872 2148
2 1 0 1 0 7 50 -1 -1 0.000 0 0 -1 0 0 2
	 5726 2148 5872 2002
-6
6 5580 1124 5726 1271
2 1 0 1 0 7 50 -1 -1 0.000 0 0 7 0 0 2
	 5580 1124 5726 1271
2 1 0 1 0 7 50 -1 -1 0.000 0 0 7 0 0 2
	 5580 1271 5726 1124
-6
6 6109 1159 6255 1305
2 1 0 1 0 7 50 -1 -1 0.000 0 0 -1 0 0 2
	 6109 1159 6255 1305
2 1 0 1 0 7 50 -1 -1 0.000 0 0 -1 0 0 2
	 6109 1305 6255 1159
-6
6 5670 1530 5816 1676
2 1 0 1 0 7 50 -1 -1 0.000 0 0 -1 0 0 2
	 5670 1530 5816 1676
2 1 0 1 0 7 50 -1 -1 0.000 0 0 -1 0 0 2
	 5670 1676 5816 1530
-6
6 4939 1564 5085 1710
2 1 0 1 0 7 50 -1 -1 0.000 0 0 -1 0 0 2
	 4939 1564 5085 1710
2 1 0 1 0 7 50 -1 -1 0.000 0 0 -1 0 0 2
	 4939 1710 5085 1564
-6
6 5247 1249 5393 1395
2 1 0 1 0 7 50 -1 -1 0.000 0 0 -1 0 0 2
	 5247 1249 5393 1395
2 1 0 1 0 7 50 -1 -1 0.000 0 0 -1 0 0 2
	 5247 1395 5393 1249
-6
6 5272 1620 5418 1766
2 1 0 1 0 7 50 -1 -1 0.000 0 0 -1 0 0 2
	 5272 1620 5418 1766
2 1 0 1 0 7 50 -1 -1 0.000 0 0 -1 0 0 2
	 5272 1766 5418 1620
-6
6 6000 1575 6147 1721
2 1 0 1 0 7 50 -1 -1 0.000 0 0 -1 0 0 2
	 6000 1575 6147 1721
2 1 0 1 0 7 50 -1 -1 0.000 0 0 -1 0 0 2
	 6000 1721 6147 1575
-6
6 5670 720 5816 866
2 1 0 1 0 7 50 -1 -1 0.000 0 0 -1 0 0 2
	 5670 720 5816 866
2 1 0 1 0 7 50 -1 -1 0.000 0 0 -1 0 0 2
	 5670 866 5816 720
-6
3 1 0 2 0 14 60 -1 20 0.000 0 0 0 7
	 6210 945 6867 1885 6077 2587 5355 2115 4725 1845 4615 744
	 5521 305
	 1.000 1.000 1.000 1.000 1.000 1.000 1.000
-6
2 1 0 5 20 7 50 -1 -1 0.000 0 0 -1 0 0 3
	 3600 3510 4860 2700 7785 3780
2 1 3 5 20 7 50 -1 -1 18.000 0 0 -1 0 0 3
	 3240 2610 5355 2430 7920 3015
2 1 0 5 20 7 50 -1 -1 0.000 0 0 -1 0 0 2
	 4860 2745 4995 1665
2 1 3 5 20 7 50 -1 -1 18.000 0 0 -1 0 0 2
	 5355 2430 5721 1621
4 0 0 50 -1 20 18 0.0000 4 210 1095 2700 4455 Musiciens\001
4 0 0 50 -1 20 18 0.0000 4 285 1815 6525 990 Enregistrements\001
4 0 0 50 -1 20 18 0.0000 4 210 1305 7785 4545 Instruments\001
