#FIG 3.2
Landscape
Center
Metric
A4      
100.00
Single
-2
1200 2
2 2 0 2 0 7 50 0 18 0.000 0 0 -1 0 0 5
	 90 3960 630 3960 630 4410 90 4410 90 3960
2 2 0 2 0 7 50 0 18 0.000 0 0 -1 0 0 5
	 630 3960 1170 3960 1170 4410 630 4410 630 3960
2 2 0 2 0 7 50 0 18 0.000 0 0 -1 0 0 5
	 1710 3960 2250 3960 2250 4410 1710 4410 1710 3960
2 2 0 2 0 7 50 0 18 0.000 0 0 -1 0 0 5
	 2250 3960 2790 3960 2790 4410 2250 4410 2250 3960
2 2 0 2 0 7 50 0 18 0.000 0 0 -1 0 0 5
	 2790 3960 3330 3960 3330 4410 2790 4410 2790 3960
2 2 0 2 0 7 50 0 18 0.000 0 0 -1 0 0 5
	 3330 3960 3870 3960 3870 4410 3330 4410 3330 3960
2 2 0 2 0 7 50 0 18 0.000 0 0 -1 0 0 5
	 3870 3960 4410 3960 4410 4410 3870 4410 3870 3960
2 2 0 2 0 7 50 0 18 0.000 0 0 -1 0 0 5
	 4410 3960 4950 3960 4950 4410 4410 4410 4410 3960
2 2 0 2 0 7 50 0 18 0.000 0 0 -1 0 0 5
	 4950 3960 5490 3960 5490 4410 4950 4410 4950 3960
2 2 0 2 0 7 50 0 18 0.000 0 0 -1 0 0 5
	 5490 3960 6030 3960 6030 4410 5490 4410 5490 3960
2 2 0 2 0 7 50 0 18 0.000 0 0 -1 0 0 5
	 6030 3960 6570 3960 6570 4410 6030 4410 6030 3960
2 2 0 2 0 7 50 0 18 0.000 0 0 -1 0 0 5
	 6570 3960 7110 3960 7110 4410 6570 4410 6570 3960
2 2 0 2 0 7 50 0 18 0.000 0 0 -1 0 0 5
	 1170 3960 1710 3960 1710 4410 1170 4410 1170 3960
2 2 0 2 0 7 50 0 18 0.000 0 0 -1 0 0 5
	 7110 3960 7650 3960 7650 4410 7110 4410 7110 3960
2 2 0 2 0 7 50 0 18 0.000 0 0 -1 0 0 5
	 7650 3960 8190 3960 8190 4410 7650 4410 7650 3960
2 1 0 6 0 7 60 -1 -1 0.000 0 0 7 0 0 2
	 2070 2835 1890 2430
2 1 0 6 0 7 60 -1 -1 0.000 0 0 7 0 0 2
	 1440 2835 1620 2430
2 1 0 6 0 7 60 -1 -1 0.000 0 0 7 0 0 2
	 3240 2835 3420 2430
2 1 0 6 0 7 60 -1 -1 0.000 0 0 -1 0 0 2
	 2880 1485 4275 1080
2 1 0 6 0 7 60 -1 -1 0.000 0 0 7 0 0 2
	 3330 2070 2880 1755
2 1 0 6 0 7 60 -1 -1 0.000 0 0 7 0 0 2
	 1980 2070 2430 1755
2 1 0 6 0 7 60 -1 -1 0.000 0 0 7 0 0 2
	 6930 2070 6480 1755
2 1 0 6 0 7 60 -1 -1 0.000 0 0 7 0 0 2
	 5580 2070 6030 1755
2 1 0 6 0 7 60 -1 -1 0.000 0 0 7 0 0 2
	 6030 1485 4635 1080
2 1 0 6 0 7 60 -1 -1 0.000 0 0 7 0 0 2
	 3870 2835 3690 2430
2 1 0 6 0 7 60 -1 -1 0.000 0 0 7 0 0 2
	 5670 2835 5490 2430
2 1 0 6 0 7 60 -1 -1 0.000 0 0 7 0 0 2
	 6840 2835 7020 2430
2 1 0 6 0 7 60 -1 -1 0.000 0 0 7 0 0 2
	 5040 2835 5220 2430
2 4 0 2 0 7 50 -1 18 0.000 0 0 6 0 0 5
	 4725 1305 4185 1305 4185 765 4725 765 4725 1305
2 4 0 2 0 7 50 -1 18 0.000 0 0 6 0 0 5
	 2925 1890 2385 1890 2385 1350 2925 1350 2925 1890
2 4 0 2 0 7 50 -1 18 0.000 0 0 6 0 0 5
	 2025 2520 1485 2520 1485 1980 2025 1980 2025 2520
2 4 0 2 0 7 50 -1 18 0.000 0 0 6 0 0 5
	 1575 3330 1035 3330 1035 2790 1575 2790 1575 3330
2 4 0 2 0 7 50 -1 18 0.000 0 0 6 0 0 5
	 2475 3330 1935 3330 1935 2790 2475 2790 2475 3330
2 4 0 2 0 7 50 -1 18 0.000 0 0 6 0 0 5
	 3375 3330 2835 3330 2835 2790 3375 2790 3375 3330
2 4 0 2 0 7 50 -1 18 0.000 0 0 6 0 0 5
	 4275 3330 3735 3330 3735 2790 4275 2790 4275 3330
2 4 0 2 0 7 50 -1 18 0.000 0 0 6 0 0 5
	 3825 2520 3285 2520 3285 1980 3825 1980 3825 2520
2 4 0 2 0 7 50 -1 18 0.000 0 0 6 0 0 5
	 5625 2520 5085 2520 5085 1980 5625 1980 5625 2520
2 4 0 2 0 7 50 -1 18 0.000 0 0 6 0 0 5
	 5175 3330 4635 3330 4635 2790 5175 2790 5175 3330
2 4 0 2 0 7 50 -1 18 0.000 0 0 6 0 0 5
	 6075 3330 5535 3330 5535 2790 6075 2790 6075 3330
2 4 0 2 0 7 50 -1 18 0.000 0 0 6 0 0 5
	 6975 3330 6435 3330 6435 2790 6975 2790 6975 3330
2 4 0 2 0 7 50 -1 18 0.000 0 0 6 0 0 5
	 7470 2520 6930 2520 6930 1980 7470 1980 7470 2520
2 4 0 2 0 7 50 -1 18 0.000 0 0 6 0 0 5
	 6525 1890 5985 1890 5985 1350 6525 1350 6525 1890
2 1 1 2 0 7 50 0 -1 3.000 0 0 -1 0 0 2
	 8190 3960 8640 3960
2 1 1 2 0 7 50 0 -1 3.000 0 0 -1 0 0 2
	 8190 4410 8640 4410
4 1 0 50 -1 12 16 0.0000 4 165 150 360 3870 0\001
4 1 0 50 -1 12 16 0.0000 4 165 150 900 3870 1\001
4 1 0 50 -1 12 16 0.0000 4 165 150 1440 3870 2\001
4 1 0 50 -1 12 16 0.0000 4 165 150 1980 3870 3\001
4 1 0 50 -1 12 16 0.0000 4 165 150 2520 3870 4\001
4 1 0 50 -1 12 16 0.0000 4 165 150 3060 3870 5\001
4 1 0 50 -1 12 16 0.0000 4 165 150 3600 3870 6\001
4 1 0 50 -1 12 16 0.0000 4 165 150 4140 3870 7\001
4 1 0 50 -1 12 16 0.0000 4 165 150 4680 3870 8\001
4 1 0 50 -1 12 16 0.0000 4 165 150 5220 3870 9\001
4 1 0 50 -1 12 16 0.0000 4 165 300 5760 3870 10\001
4 1 0 50 -1 12 16 0.0000 4 165 300 6300 3870 11\001
4 1 0 50 -1 12 16 0.0000 4 165 300 6840 3870 12\001
4 1 0 50 -1 12 16 0.0000 4 165 300 7380 3870 13\001
4 1 0 50 -1 12 16 0.0000 4 165 300 7920 3870 14\001
4 1 0 50 -1 18 18 0.0000 4 210 195 360 4275 A\001
4 1 0 50 -1 18 18 0.0000 4 210 195 900 4275 B\001
4 1 0 50 -1 18 18 0.0000 4 210 75 1440 4275 I\001
4 1 0 50 -1 18 18 0.0000 4 210 210 1980 4275 C\001
4 1 0 50 -1 18 18 0.0000 4 210 180 2520 4275 F\001
4 1 0 50 -1 18 18 0.0000 4 210 150 3060 4275 J\001
4 1 0 50 -1 18 18 0.0000 4 210 240 3600 4275 M\001
4 1 0 50 -1 18 18 0.0000 4 210 210 4140 4275 D\001
4 1 0 50 -1 18 18 0.0000 4 210 180 4680 4275 E\001
4 1 0 50 -1 18 18 0.0000 4 210 210 5220 4275 G\001
4 1 0 50 -1 18 18 0.0000 4 210 195 5760 4275 H\001
4 1 0 50 -1 18 18 0.0000 4 210 210 6300 4275 K\001
4 1 0 50 -1 18 18 0.0000 4 210 165 6840 4275 L\001
4 1 0 50 -1 18 18 0.0000 4 210 210 7380 4275 N\001
4 1 0 50 -1 18 18 0.0000 4 210 210 6705 3150 N\001
4 1 0 50 -1 18 18 0.0000 4 210 165 5805 3150 L\001
4 1 0 50 -1 18 18 0.0000 4 210 210 4905 3150 K\001
4 1 0 50 -1 18 18 0.0000 4 210 150 5355 2340 J\001
4 1 0 50 -1 18 18 0.0000 4 210 75 6255 1710 I\001
4 1 0 50 -1 18 18 0.0000 4 210 240 7200 2340 M\001
4 1 0 50 -1 18 18 0.0000 4 210 180 3555 2340 F\001
4 1 0 50 -1 18 18 0.0000 4 210 195 4005 3150 H\001
4 1 0 50 -1 18 18 0.0000 4 210 210 3105 3150 G\001
4 1 0 50 -1 18 18 0.0000 4 210 180 2205 3150 E\001
4 1 0 50 -1 18 18 0.0000 4 210 210 1305 3150 D\001
4 1 0 50 -1 18 18 0.0000 4 210 210 1755 2340 C\001
4 1 0 50 -1 18 18 0.0000 4 210 195 2655 1710 B\001
4 1 0 50 -1 18 18 0.0000 4 210 195 4455 1125 A\001
4 1 0 50 -1 28 16 0.0000 4 135 90 7920 4275 ?\001
