#FIG 3.2  Produced by xfig version 3.2.5-alpha5
Landscape
Center
Metric
A4      
100.00
Single
-2
1200 2
6 4545 2430 5085 2970
2 4 0 2 0 7 50 -1 15 0.000 0 0 7 0 0 5
	 5040 2925 4590 2925 4590 2475 5040 2475 5040 2925
4 0 0 50 -1 20 12 0.0000 4 135 180 4725 2767 10\001
-6
6 5085 2430 5625 2970
2 4 0 2 0 7 50 -1 15 0.000 0 0 7 0 0 5
	 5580 2925 5130 2925 5130 2475 5580 2475 5580 2925
4 0 0 50 -1 20 12 0.0000 4 135 180 5265 2767 15\001
-6
6 4005 2430 4545 2970
2 4 0 2 0 7 50 -1 15 0.000 0 0 7 0 0 5
	 4500 2925 4050 2925 4050 2475 4500 2475 4500 2925
4 0 0 50 -1 20 12 0.0000 4 135 180 4185 2767 11\001
-6
6 5625 2430 6165 2970
2 4 0 2 0 7 50 -1 15 0.000 0 0 7 0 0 5
	 6120 2925 5670 2925 5670 2475 6120 2475 6120 2925
4 0 0 50 -1 20 12 0.0000 4 135 90 5850 2767 8\001
-6
2 2 0 1 0 0 60 -1 20 0.000 0 0 -1 0 0 5
	 4140 2610 5805 2610 5805 2790 4140 2790 4140 2610
