#FIG 3.2  Produced by xfig version 3.2.5b
Landscape
Center
Metric
A4      
100.00
Single
-2
1200 2
6 1350 1125 2055 1830
2 4 0 2 0 7 50 -1 20 0.000 0 0 7 0 0 5
	 2040 1815 1365 1815 1365 1140 2040 1140 2040 1815
4 0 0 50 -1 22 18 0.0000 4 210 165 1612 1582 E\001
-6
6 2235 1575 2940 2280
2 4 0 2 0 7 50 -1 20 0.000 0 0 7 0 0 5
	 2925 2265 2250 2265 2250 1590 2925 1590 2925 2265
4 0 0 50 -1 22 18 0.0000 4 210 195 2497 2032 G\001
-6
6 3135 2025 3840 2730
2 4 0 2 0 7 50 -1 20 0.000 0 0 7 0 0 5
	 3825 2715 3150 2715 3150 2040 3825 2040 3825 2715
4 0 0 50 -1 22 18 0.0000 4 210 150 3397 2482 L\001
-6
2 1 0 10 0 7 60 -1 -1 0.000 0 0 -1 0 0 2
	 2583 2106 1863 1566
2 1 0 10 0 7 60 -1 -1 0.000 0 0 -1 0 0 2
	 3528 2511 2808 1971
