#FIG 3.2
Landscape
Center
Metric
A4      
100.00
Single
-2
1200 2
6 3735 3735 4545 4185
6 4005 3735 4320 4140
4 0 0 50 0 16 16 0.0000 4 135 135 4015 4020 e\001
4 0 0 50 0 16 10 0.0000 4 120 90 4150 4110 2\001
-6
2 4 0 1 0 7 58 -1 19 0.000 0 0 7 0 0 5
	 3735 4185 4535 4185 4535 3780 3735 3780 3735 4185
-6
6 4005 4320 4320 4725
4 0 0 50 0 16 16 0.0000 4 135 135 4015 4605 e\001
4 0 0 50 0 16 10 0.0000 4 120 90 4150 4695 1\001
-6
6 3915 2475 4365 2745
4 0 0 50 0 16 16 0.0000 4 135 135 3915 2625 e\001
4 0 0 50 0 16 10 0.0000 4 120 300 4050 2715 N+1\001
-6
6 3735 2970 4545 3375
6 4005 3060 4275 3330
4 0 0 50 0 16 16 0.0000 4 135 135 4015 3210 e\001
4 0 0 50 0 16 10 0.0000 4 120 120 4150 3300 N\001
-6
2 4 0 1 0 7 58 -1 19 0.000 0 0 7 0 0 5
	 3735 3375 4535 3375 4535 2970 3735 2970 3735 3375
-6
6 450 4140 1260 4770
6 720 4320 1035 4725
4 0 0 50 0 16 16 0.0000 4 135 135 730 4605 e\001
4 0 0 50 0 16 10 0.0000 4 120 90 865 4695 1\001
-6
2 1 0 6 0 7 58 0 -1 0.000 0 0 -1 0 0 2
	 850 4185 850 4365
2 4 0 1 0 7 58 -1 19 0.000 0 0 7 0 0 5
	 450 4770 1250 4770 1250 4365 450 4365 450 4770
-6
6 450 3735 1260 4185
6 720 3735 1035 4140
4 0 0 50 0 16 16 0.0000 4 135 135 730 4020 e\001
4 0 0 50 0 16 10 0.0000 4 120 90 865 4110 2\001
-6
2 4 0 1 0 7 58 -1 19 0.000 0 0 7 0 0 5
	 450 4185 1250 4185 1250 3780 450 3780 450 4185
-6
6 450 2970 1260 3375
6 720 3060 990 3330
4 0 0 50 0 16 16 0.0000 4 135 135 730 3210 e\001
4 0 0 50 0 16 10 0.0000 4 120 120 865 3300 N\001
-6
2 4 0 1 0 7 58 -1 19 0.000 0 0 7 0 0 5
	 450 3375 1250 3375 1250 2970 450 2970 450 3375
-6
6 7650 2295 8460 2700
6 7830 2385 8280 2655
4 0 0 50 0 16 16 0.0000 4 135 135 7830 2535 e\001
4 0 0 50 0 16 10 0.0000 4 120 300 7965 2625 N+1\001
-6
2 4 0 1 0 7 58 -1 19 0.000 0 0 7 0 0 5
	 7650 2700 8450 2700 8450 2295 7650 2295 7650 2700
-6
6 6480 4140 7290 4770
6 6750 4320 7065 4725
4 0 0 50 0 16 16 0.0000 4 135 135 6760 4605 e\001
4 0 0 50 0 16 10 0.0000 4 120 90 6895 4695 1\001
-6
2 1 0 6 0 7 58 0 -1 0.000 0 0 -1 0 0 2
	 6880 4185 6880 4365
2 4 0 1 0 7 58 -1 19 0.000 0 0 7 0 0 5
	 6480 4770 7280 4770 7280 4365 6480 4365 6480 4770
-6
6 6480 3735 7290 4185
6 6750 3735 7065 4140
4 0 0 50 0 16 16 0.0000 4 135 135 6760 4020 e\001
4 0 0 50 0 16 10 0.0000 4 120 90 6895 4110 2\001
-6
2 4 0 1 0 7 58 -1 19 0.000 0 0 7 0 0 5
	 6480 4185 7280 4185 7280 3780 6480 3780 6480 4185
-6
6 6480 2970 7290 3375
6 6750 3060 7020 3330
4 0 0 50 0 16 16 0.0000 4 135 135 6760 3210 e\001
4 0 0 50 0 16 10 0.0000 4 120 120 6895 3300 N\001
-6
2 4 0 1 0 7 58 -1 19 0.000 0 0 7 0 0 5
	 6480 3375 7280 3375 7280 2970 6480 2970 6480 3375
-6
2 1 1 6 0 7 58 0 -1 4.000 0 0 -1 0 0 2
	 4140 3780 4140 3375
2 1 0 6 0 7 58 0 -1 0.000 0 0 -1 0 0 2
	 4135 4185 4135 4365
2 4 0 1 0 7 58 -1 19 0.000 0 0 7 0 0 5
	 3735 4770 4535 4770 4535 4365 3735 4365 3735 4770
2 1 0 6 0 7 58 0 -1 0.000 0 0 -1 0 0 2
	 4140 2790 4140 2970
2 4 0 1 0 7 58 -1 19 0.000 0 0 7 0 0 5
	 3735 2790 4535 2790 4535 2385 3735 2385 3735 2790
2 1 1 6 0 7 58 0 -1 4.000 0 0 -1 0 0 2
	 855 3780 855 3375
2 1 1 6 0 7 58 0 -1 4.000 0 0 -1 0 0 2
	 6885 3780 6885 3375
2 1 0 4 -1 7 60 -1 13 0.000 0 0 -1 0 0 4
	 360 2220 360 4860 1340 4860 1340 2220
2 1 0 4 -1 7 60 -1 13 0.000 0 0 -1 0 0 4
	 3645 2220 3645 4860 4625 4860 4625 2220
2 1 0 4 -1 7 60 -1 13 0.000 0 0 -1 0 0 4
	 6390 2220 6390 4860 7370 4860 7370 2220
3 4 0 4 -1 7 50 -1 -1 0.000 0 1 0 4
	1 1 1.00 150.00 180.00
	 6885 2565 7065 1980 7515 1800 7875 2160
	 0.000 -1.000 -1.000 0.000
3 4 0 4 -1 7 50 -1 -1 0.000 0 1 0 4
	1 1 1.00 150.00 180.00
	 3060 2565 3240 1980 3690 1800 4050 2160
	 0.000 -1.000 -1.000 0.000
4 1 0 50 0 28 15 0.0000 4 165 270 4140 5220 (b)\001
4 1 0 50 0 28 15 0.0000 4 165 270 855 5220 (a)\001
4 0 0 50 -1 18 14 0.0000 4 210 780 2205 1980 Empiler\001
4 0 0 50 -1 18 14 0.0000 4 210 750 5985 1980 D\351piler\001
4 1 0 50 0 28 15 0.0000 4 165 270 6885 5220 (c)\001
