#FIG 3.2  Produced by xfig version 3.2.5
Landscape
Center
Metric
A4      
100.00
Single
-2
1200 2
6 4230 1530 7020 3645
2 2 0 2 0 7 60 -1 20 0.000 0 0 -1 0 0 5
	 4275 1575 6975 1575 6975 3600 4275 3600 4275 1575
2 1 0 2 0 7 50 -1 -1 0.000 0 0 -1 0 0 2
	 4275 2025 6975 2025
2 1 0 1 0 7 50 -1 -1 0.000 0 0 -1 0 0 2
	 4950 1575 4950 3600
2 1 0 1 0 7 50 -1 -1 0.000 0 0 -1 0 0 2
	 5310 1575 5310 3600
2 1 0 1 0 7 50 -1 -1 0.000 0 0 -1 0 0 2
	 6030 1575 6030 3600
2 1 0 1 0 7 50 -1 -1 0.000 0 0 -1 0 0 2
	 6390 1575 6390 3600
2 1 0 1 0 7 50 -1 -1 0.000 0 0 -1 0 0 2
	 6750 1575 6750 3600
-6
6 4230 2340 7020 2745
2 2 0 3 0 21 50 -1 20 0.000 0 0 -1 0 0 5
	 4275 2385 6975 2385 6975 2700 4275 2700 4275 2385
4 0 7 50 -1 22 16 0.0000 4 195 480 5362 2640 OLD\001
-6
3 2 0 4 21 7 50 -1 -1 0.000 0 1 0 3
	1 1 1.00 150.00 120.00
	 2790 3105 3690 3465 5535 2835
	 0.000 -1.000 0.000
